{
		"top" : "Holen Sie sich jetzt das Upgrade und schalten Sie großartige Funktionen frei:",

        "sections" : [
            {
                "img" : "shield",
                "descr" : "Schutz durch die Community-Blockierliste",
                "width": "40",
                "height": "40"
            },
            {
                "img" : "list",
                "descr" : "Unbegrenzte Einträge in der Blockierliste",
                "width": "40",
                "height": "40"

            },
            {
                "img" : "cloud",
                "descr" : "Online-Backup",
                "width": "40",
                "height": "40"
            },
            {
                "img" : "caller_id",
                "descr" : "Enhanced Caller ID",
                "width": "40",
                "height": "40"
            }
        ],

        "bottom" : ""
}