﻿[
	{
        "id": "00001_11", 
	    "sql": "CREATE TABLE 'blockingHistory' (id INTEGER PRIMARY KEY AUTOINCREMENT, type VARCHAR(10), phone VARCHAR(20), name VARCHAR(100), calledTimestamp DATETIME, uploaded DATETIME) ;"
	},
	{
        "id": "00001_12", 
	    "sql": "CREATE TABLE 'blockList' (id INTEGER PRIMARY KEY AUTOINCREMENT, type VARCHAR(10), phone VARCHAR(20), name VARCHAR(100), calledTimestamp DATETIME, transactionKey VARCHAR(36), unblocked SMALLINT DEFAULT 0, offline SMALLINT DEFAULT 1) ;"
	},
	{
        "id": "00001_13", 
	    "sql": "CREATE TABLE 'complaints' (id INTEGER PRIMARY KEY AUTOINCREMENT, filedTimestamp DATETIME DEFAULT CURRENT_TIMESTAMP, type VARCHAR(10), phone VARCHAR(20), callerName VARCHAR(100), textMessage VARCHAR(200), calledTimeStamp DATETIME, status VARCHAR(20), canceled SMALLINT DEFAULT 0, filerName VARCHAR(100), noCallerInfo SMALLINT, noSaleCharity SMALLINT, noCostPolicy SMALLINT, threatening SMALLINT, nightHours SMALLINT, abandoned SMALLINT, ignoredDNC SMALLINT, recordedMsg SMALLINT, note TEXT, callType VARCHAR(50), relationship SMALLINT, falseInfo SMALLINT, failedToIdentity SMALLINT, deceptive SMALLINT, threatenedArrest SMALLINT, threatenedSuit SMALLINT, informedOther SMALLINT, obsceneLanguage SMALLINT, threatenedViolence SMALLINT, callsRepeatedly SMALLINT, ignoredCeaseNotice SMALLINT, transactionKey VARCHAR(50), offline SMALLINT DEFAULT 1) ;"
	},
	{
        "id": "00001_15", 
	    "sql": "CREATE TABLE 'blockingOptions' (id INTEGER PRIMARY KEY AUTOINCREMENT, optionType VARCHAR(20) CONSTRAINT optionType UNIQUE, checked SMALLINT, message VARCHAR(160), offline SMALLINT DEFAULT 1);"
	},
	{
        "id": "00001_16", 
	    "sql": "CREATE TABLE 'DeviceInfo' (property VARCHAR(30) constraint property unique, value VARCHAR(50)) ;"
	},
	{
        "id": "00001_17", 
	    "sql": "CREATE TABLE 'xtify' (id INTEGER PRIMARY KEY AUTOINCREMENT, tranId VARCHAR(50), notifyId VARCHAR(10), keyFrom VARCHAR(50), messageType TEXT, messageTitle TEXT, message TEXT, processed SMALLINT DEFAULT 0, receivedDts DATETIME DEFAULT CURRENT_TIMESTAMP, processedDts DATETIME, batchId VARCHAR(50) DEFAULT '');"
	},
	{
        "id": "00001_18", 
	    "sql": "CREATE TABLE 'syncStatus' (transType VARCHAR(10) CONSTRAINT transType UNIQUE, tcn VARCHAR(50)) ;"
	},
	{
        "id": "00001_19", 
	    "sql": "CREATE TABLE 'nonSupportedDevices' (id INTEGER PRIMARY KEY AUTOINCREMENT, noAppSupportMake VARCHAR(20), noAppSupportModel VARCHAR(20), noDNDSupportMake VARCHAR(20), noDNDSupportModel VARCHAR(20)) ;"
	},
	{
        "id": "00001_33", 
	    "sql": "CREATE TABLE 'groupBlocking' (id INTEGER PRIMARY KEY AUTOINCREMENT, number VARCHAR(10) CONSTRAINT number UNIQUE, name VARCHAR(100), unblocked SMALLINT DEFAULT 0, offline SMALLINT DEFAULT 1) ;"
	},
	{
        "id": "00001_34", 
	    "sql": "CREATE TABLE 'smartBlocking' (id INTEGER PRIMARY KEY AUTOINCREMENT, number VARCHAR(10) CONSTRAINT number UNIQUE, name VARCHAR(100), numUserBlcks INTEGER, unblocked SMALLINT DEFAULT 0, offline SMALLINT DEFAULT 1) ;"
	},
	{
        "id": "00001_35", 
	    "sql": "CREATE TABLE 'appSettings' (settingName VARCHAR(250) CONSTRAINT settingName UNIQUE, settingValue TEXT) ;"
	},
	{
		"id":"00001_20",
		"sql":"INSERT INTO 'nonSupportedDevices' (noAppSupportMake, noAppSupportModel, noDNDSupportMake, noDNDSupportModel) VALUES ('kyocera corporation', 'zio', 'kyocera corporation', 'zio');"
	},
	{
		"id":"00001_21",
		"sql":"INSERT INTO 'nonSupportedDevices' (noAppSupportMake, noAppSupportModel) VALUES ('zte', 'x500');"
	},
	{
		"id":"00001_22",
		"sql":"INSERT INTO 'nonSupportedDevices' (noDNDSupportMake, noDNDSupportModel) VALUES ('lge', 'lg-lw690');"
	},
	{
		"id":"00001_23",
		"sql":"INSERT INTO 'nonSupportedDevices' (noDNDSupportMake, noDNDSupportModel) VALUES ('lge', 'lg-ms690');"
	},
	{
        "id": "00001_26", 
	    "sql": "INSERT INTO 'blockingOptions' (optionType, checked, offline) VALUES ('text', 1, 0);"
	},
	{
        "id": "00001_28", 
	    "sql": "INSERT INTO 'blockingOptions' (optionType, checked, offline) VALUES ('unknown', 0, 0) ;"
	},
	{
        "id": "00001_29", 
	    "sql": "INSERT INTO 'blockingOptions' (optionType, checked, offline) VALUES ('dnd', 0, 0) ;"
	},
	{
        "id": "00001_30", 
	    "sql": "INSERT INTO 'blockingOptions' (optionType, checked, offline) VALUES ('service', 1, 0) ;"
	},
	{
        "id": "00001_31", 
	    "sql": "INSERT INTO 'blockingOptions' (optionType, checked, offline) VALUES ('group', 0, 0) ;"
	},
	{
        "id": "00001_32", 
	    "sql": "INSERT INTO 'blockingOptions' (optionType, checked, offline) VALUES ('smart', 0, 0) ;"
	}
]