﻿[
	{
        "id": "00008_01", 
	    "sql": "CREATE TABLE IF NOT EXISTS 'callerIdCache' (phoneNumber VARCHAR(50) CONSTRAINT phoneNumber UNIQUE, callerName VARCHAR(150), cdmNameId INT, expires DATETIME);"
	}, 
	{
        "id": "00008_02", 
	    "sql": "ALTER TABLE blockList ADD COLUMN cdmNameId INT;"
	},
	{
        "id": "00008_03", 
	    "sql": "ALTER TABLE blockList ADD COLUMN namedBlockFlg INT;"
	},
	{
        "id": "00008_04", 
	    "sql": "ALTER TABLE blockList ADD COLUMN cdmNameType INT;"
	},
	{
        "id": "00008_05", 
	    "sql": "ALTER TABLE blockList ADD COLUMN callLogTimestamp VARCHAR(50);"
	},
	{
        "id": "00008_06", 
	    "sql": "ALTER TABLE complaints ADD COLUMN callLogTimestamp VARCHAR(50);"
	}
]