[
  "/",
  ":",
  "-",
  "*",
  ".",
  ",",
  "::",
  "?",
  "(",
  "+",
  "&",
  "_",
  "@",
  "'",
  ").",
  ":+",
  "::+",
  ")",
  ",/",
  "//",
  ",:",
  "-+",
  "__",
  ",,",
  "---***",
  "***",
  ":.",
  "--",
  "/+",
  "#",
  "-/",
  "~",
  "[",
  "]",
  "),",
  ")-",
  "*_",
  ")/",
  ":-",
  "-@",
  ")./",
  ".-",
  ";",
  "%",
  "\u0002",
  ",,/",
  "-,",
  ".&",
  "\"",
  ".,",
  ".(",
  "-*",
  "|",
  ",,:",
  "*+",
  "&/",
  "):+",
  "##",
  ",(",
  "\\",
  "#/",
  "..",
  "!",
  "---",
  "@@@@@@@@@@@@@@@@@@@@@@@@@@@@@@@@@@@@@@@@@@@@@@@@@@@@@@@@@@@@@@@@@",
  ")_",
  ".*",
  ",!/",
  "./",
  "*\"",
  ",.",
  ",.,",
  ":[",
  "/(",
  "/_",
  "(/",
  ".)",
  "),(",
  ",,,"
]