{
    "top" : "Идентификатор звонков отображает данные о звонящем при скрытом вызове. Вы всегда знаете, кто Вам звонит.",

    "sections" : [
        {
            "img" : "glass",
            "descr" : "Показывает имя неизвестного абонента",
            "width": "40",
            "height": "40"
        },
        {
            "img" : "group",
            "descr" : "Миллионы частных лиц и компаний",
            "width": "40",
            "height": "40"

        },
        {
            "img" : "credits",
            "descr" : "10 бонусных кредитов для ручного поиска КТО ЗВОНИЛ?",
            "width": "40",
            "height": "40"
        }
    ],

    "bottom" : ""
}