{
  "top" : "Купить кредиты для поиска номеров в центральной базе данных.",

  "sections" : [
    {
      "img" : "glass",
      "descr" : "Узнать имя абонента",
      "width": "40",
      "height": "40"
    },
    {
      "img" : "shield",
      "descr" : "Идентифицировать неизвестные звонки",
      "width": "40",
      "height": "40"
    },
    {
      "img" : "credits",
      "descr" : "Кредиты бессрочные!",
      "width": "40",
      "height": "40"
    }
  ],

  "bottom" : ""
}