{
  "handles": [
    "airtel",
    "airtelpaymentsbank",
    "albk",
    "allahabadbank",
    "allbank",
    "andb",
    "apb",
    "apl",
    "axis",
    "axisb",
    "axisbank",
    "axisgo",
    "bandhan",
    "barodampay",
    "barodapay",
    "birla",
    "boi",
    "cbin",
    "cboi",
    "centralbank",
    "cmsidfc",
    "cnrb",
    "csbcash",
    "csbpay",
    "cub",
    "dbs",
    "dcb",
    "dcbbank",
    "denabank",
    "dlb",
    "eazypay",
    "equitas",
    "ezeepay",
    "fbl",
    "federal",
    "finobank",
    "hdfcbank",
    "hdfcbankjd",
    "hsbc",
    "icici",
    "icicibank",
    "idbi",
    "idbibank",
    "idfc",
    "idfcbank",
    "idfcnetc",
    "ikwik",
    "imobile",
    "indbank",
    "indianbank",
    "indianbk",
    "icicipay",
    "indus",
    "iob",
    "jkb",
    "jsbp",
    "karb",
    "karurvysyabank",
    "kaypay",
    "kbl",
    "kbl052",
    "kmb",
    "kmbl",
    "kotak",
    "kvb",
    "kvbank",
    "lime",
    "lvb",
    "lvbank",
    "mahb",
    "myicici",
    "obc",
    "okbizaxis",
    "okaxis",
    "okhdfcbank",
    "okicici",
    "oksbi",
    "paytm",
    "payzapp",
    "pingpay",
    "pockets",
    "pnb",
    "psb",
    "purz",
    "rajgovhdfcbank",
    "sbi",
    "sc",
    "scb",
    "scbl",
    "scmobile",
    "sib",
    "srcb",
    "synd",
    "syndbank",
    "syndicate",
    "tjsb",
    "ubi",
    "uboi",
    "uco",
    "unionbank",
    "unionbankofindia",
    "united",
    "utbi",
    "vijayabank",
    "vijb",
    "vjb",
    "ybl",
    "yesbank",
    "yesbankltd",
    "upi",
    "ibl"
  ]
}