{"93": 0,"355": 0,"213": 0,"1684": 1,"1264": 1,"1268": 1,"54": 0,"374": 0,"61": 0,"43": 0,"994": 0,"1242": 1,"880": 0,
"1246": 1,"375": 80,"32": 0,"1441": 1,"591": 0,"387": 0,"55": 0,"1284": 1,"359": 0,"855": 0,"1": 1,"1345": 1,"56": 0,
"86": 0,"57": 0,"385": 0,"53": 0,"599": 0,"243": 0,"242": 0,"1767": 1,"1809": 1,"593": 0,"20": 0,"291": 0,"251": 0,"358": 0,
"33": 0,"594": 0,"995": 0,"49": 0,"233": 0,"1473": 1,"590": 0,"1671": 1,"502": 0,"36": "06","91": 0,"62": 0,"98": 0,"39": 0,
"353": 0,"972": 0,"1876": 1,"81": 0,"962": 0,"7": 8,"254": 0,"996": 0,"856": 0,"961": 0,"218": 0,"370": 8,"853": 0,"389": 0,
"261": 0,"60": 0,"692": 1,"596": 0,"262": 0,"52": "01","691": 1,"373": 0,"976": 0,"382": 0,"1664": 1,"212": 0,"95": 0,
"264": 0,"977": 0,"31": 0,"64": 0,"234": 0,"1670": 1,"92": 0,"970": 0,"595": 0,"51": 0,"63": 0,"1787": 1,"1939": 1,"40": 0,
"250": 0,"1869": 1,"1758": 1,"290": 0,"1784": 1,"966": 0,"381": 0,"232": 0,"1721": 1,"421": 0,"386": 0,"27": 0,"82": 0,"94": 0,
"249": 0,"597": 0,"46": 0,"41": 0,"963": 0,"886": 0,"992": 8,"255": 0,"66": 0,"1868": 1,"90": 0,"993": 8,"1649": 1,"1340": 1,
"256": 0,"380": 0,"971": 0,"44": 0,"598": 0,"998": 0,"964": 0,"58": 0,"84": 0,"967": 0,"260": 0,"263": 0}