[
  "guwahati",
  "bagdogra",
  "gauhati",
  "kalimpong",
  "zunzunu",
  "tonk",
  "digha",
  "chomu",
  "jawad",
  "gandhisagar",
  "rawatbhata",
  "devli",
  "nayagaon",
  "nimbaheda",
  "thuravikadu",
  "srinagar",
  "mundakayam",
  "perugulathur",
  "munanjipatti",
  "ganganagar",
  "pansora",
  "anaikarai",
  "jahanabad",
  "kannirajapuram",
  "sayalkudi",
  "tpgudembypass",
  "koyylagudem",
  "gangtok",
  "aswaraopeta",
  "amalapuram",
  "kovvuru",
  "padubidri",
  "devarapalli",
  "gopalapuram",
  "suntikoppa",
  "kunnicode",
  "siyana",
  "nidadavolu",
  "nalajerlla",
  "palam",
  "badyar",
  "bahli",
  "agatrai",
  "awahdevi",
  "baldwara",
  "banethi",
  "bajrol",
  "bakhrot",
  "bangana",
  "banikhet",
  "vekra",
  "supa",
  "vinukonda",
  "thittakudi",
  "papparapatti",
  "hassanbypass",
  "ramgad",
  "gudiwada",
  "ludhiana",
  "jhunjhunu",
  "timmapuram",
  "doopadakatte",
  "manchikerl",
  "yernagudem",
  "barisadri",
  "akoli",
  "gauribidanur",
  "rajapur",
  "guddapur",
  "vemuru",
  "mallapuram",
  "vidhyanagar",
  "chamberry",
  "irrikkur",
  "narayanpet",
  "karuvanchal",
  "mattanur",
  "nanjangood",
  "iritty",
  "sachin",
  "dhasa",
  "kumily",
  "dhenkanal",
  "periyapatna",
  "karllapalem",
  "ranny",
  "koylandi",
  "payyoli",
  "kodungallur",
  "mithapur",
  "chavakkad",
  "guruvayoor",
  "kunnamkulam",
  "kuttippuram",
  "pathanapuram",
  "konni",
  "ranvi",
  "rast",
  "rajakatalab",
  "rakkar",
  "kannad",
  "chittaur",
  "paloda",
  "nadol",
  "gaya",
  "devarapally",
  "humnabad",
  "dharmagarh",
  "parwala",
  "beawara",
  "baran",
  "belewadi",
  "mandva",
  "desuri",
  "deshnokh",
  "kotkapura",
  "khiwara",
  "kaladaka",
  "chakan",
  "theog",
  "tundla",
  "bhilad",
  "binaganj",
  "jhabua",
  "bharatpur",
  "irbailu",
  "karebailu",
  "kannukudi",
  "barnahal",
  "garhwa",
  "vandavasi",
  "ollur",
  "nagrotasurian",
  "chennimalai",
  "shiv",
  "hoskote",
  "ramdevra",
  "mothara",
  "nagar",
  "nagasphata",
  "jamanvav",
  "manglana",
  "krishnankoil",
  "mokalsar",
  "molasar",
  "thodambail",
  "mokhada",
  "naranpar",
  "mubarakpur",
  "jaspara",
  "kalyanagurgam",
  "narasaraopet",
  "akolabypass",
  "kayamozhi",
  "sojat",
  "pottalpudur",
  "hirekerur",
  "harugericross",
  "hirisave",
  "horli",
  "holenarasipura",
  "patoda",
  "pahur",
  "kagwade",
  "pranchi",
  "nandigama",
  "revas",
  "orai",
  "panagarh",
  "taranagar",
  "kurupumthara",
  "bhatnavilli",
  "aadsar",
  "baneri",
  "khargone",
  "jangareddigudem",
  "icchapur",
  "valuj",
  "chittoor",
  "devalgaonmai",
  "samtra",
  "kudush",
  "vrindavan",
  "limda",
  "colachel",
  "khadadhar",
  "allavaram",
  "virudhnagar",
  "pangidi",
  "nrpura",
  "tiruchengodu",
  "bhanpur",
  "ajekar",
  "seegodu",
  "harchowal",
  "dungarpur",
  "garoth",
  "partapur",
  "yadapadava",
  "hoshiarpur",
  "mundkur",
  "dhaka",
  "khopoliadlabsimagica",
  "pare",
  "raisinghnagar",
  "numaligarh",
  "pachmarhi",
  "petnaka",
  "ichoda",
  "chavadi",
  "nouduru",
  "ulhasnagar",
  "buchireddypalem",
  "manapad",
  "cheepurupalli",
  "sinner",
  "kollipara",
  "ramaniya",
  "sasthama",
  "bhattiprolu",
  "katchanavilai",
  "ranchi",
  "thikari",
  "dosa",
  "chamardi",
  "shriganganagar",
  "chogathdhal",
  "mumbaidarshan",
  "sakharpa",
  "v.kota",
  "sikhohabad",
  "chagallu",
  "kovvurubypass",
  "kutta",
  "bharapar",
  "vayalpadu",
  "arasarkulam",
  "ahmedabad",
  "badakara",
  "balabadrapuram",
  "brahmanagudem",
  "mahe",
  "aut",
  "katrenikona",
  "atmakur",
  "jhalawada",
  "amilori",
  "suthamallivilakku",
  "pettai",
  "pitapuram",
  "kallur",
  "mukkudal",
  "ariyanayagipuram",
  "tetarpur",
  "nawabganj",
  "sikandrabad",
  "vindhyachal",
  "sangrampur",
  "deoria",
  "kota",
  "gorkhapur",
  "dugla",
  "kanod",
  "badaun",
  "mainpuri",
  "nagarkurnool",
  "dodamarg",
  "rupaidiha",
  "palavancha",
  "balrampur",
  "bahraich",
  "nibaiheda",
  "dabok",
  "devgad",
  "kareda",
  "bindar",
  "kamligadh",
  "kodaipul",
  "tiruvarur",
  "londa",
  "bantumilli",
  "srmuniversity",
  "tummidi",
  "nandihills",
  "panrutty",
  "khed",
  "chattirakkudi",
  "sirohi",
  "bhilwara",
  "barmer",
  "jaisalmer",
  "modran",
  "hazaribagh",
  "jogbani",
  "kinathukadavu",
  "gohpur",
  "maloli",
  "barad",
  "javala",
  "natepute",
  "laluk",
  "gherdi",
  "azhagiapandiapuram",
  "northgoa",
  "rajam",
  "morochi",
  "malshiras",
  "shimla",
  "balotra",
  "makrana",
  "vijaynagar",
  "attayampatt",
  "pali",
  "kateel",
  "abhyathamangala",
  "bhinmal",
  "jalor",
  "nizambad",
  "chempanthotty",
  "jogfalls",
  "aroor",
  "gaisabad",
  "kalloorani",
  "tikota",
  "mupkal",
  "bathalagundu",
  "athiyuthu",
  "athipatti",
  "ambalner",
  "bidasar",
  "nalbari",
  "thuvarankuruchi",
  "armoor",
  "dhajdi",
  "kaliakkavilai",
  "bhad",
  "baneshwar",
  "malanka",
  "singanur",
  "uran",
  "makhiyala",
  "vilathikulam",
  "rajgad",
  "jetalsar",
  "kongale",
  "deolali",
  "madhapar",
  "warora",
  "diveagar",
  "abiramam",
  "nagapattinam",
  "bhramavar",
  "alandi",
  "sonipat",
  "nalumavadi",
  "rajur",
  "nuthalapadu",
  "hunterganj",
  "upleta",
  "chatra",
  "papanasam",
  "vajdi",
  "chemberi",
  "chhatarpur",
  "neeleswaram",
  "badamalhera",
  "shirdi",
  "draksharamam",
  "dinara",
  "karera",
  "dongaon",
  "mehkar",
  "khamgaon",
  "ramojifilmcity",
  "anakapalle",
  "vankayalapadu",
  "gudiyattam",
  "bokaro",
  "talala",
  "sardarsahar",
  "vadlamudi",
  "manjarapalke",
  "mangwana",
  "ashtavinayakdarshan",
  "navalgund",
  "kunjalu",
  "salakudi",
  "srirangam",
  "neyveli",
  "mumbaiborivali",
  "kottampatti",
  "meghpar",
  "kazipet",
  "ghatkopar",
  "begusarai",
  "indravati",
  "sankagiri",
  "thenmala",
  "kothapalli",
  "sangariya",
  "muloor",
  "hosangadi",
  "bettiah",
  "muramalla",
  "edurulanka",
  "jairampur",
  "jankia",
  "umerga",
  "peeleri",
  "bhiwani",
  "thuckalay",
  "anipur",
  "dullabcherra",
  "attili",
  "naidupeta",
  "kalahasthi",
  "santhu",
  "guduru",
  "ratnal",
  "madikeri",
  "komaragiri",
  "kuvadva",
  "alagiyamandapam",
  "dhalli",
  "daroh",
  "darang",
  "dangar",
  "dandru",
  "calcutta",
  "dadasibha",
  "churag",
  "chopal",
  "barwala",
  "paasipattanam",
  "aralvaimozhi",
  "hospet",
  "chinchinada",
  "anampally",
  "adoni",
  "ranuja",
  "chinnalapatti",
  "madanapalli",
  "kalidindi",
  "thovalai",
  "porumamilla",
  "padadhri",
  "gondavle",
  "damoh",
  "ropar",
  "kesargadde",
  "malkapur",
  "basavapatna",
  "halekatte",
  "killari",
  "budugumpacross",
  "mukka",
  "bilada",
  "okha",
  "dug",
  "badod",
  "bhagavathy",
  "asind",
  "badnor",
  "gulganj",
  "mavungal",
  "keelapavoor",
  "alwar",
  "balaji",
  "karsog",
  "vasco",
  "amruthalur",
  "payyanur",
  "ankolwadi",
  "savadathi",
  "leta",
  "govada",
  "peralam",
  "patnitop",
  "harihar",
  "davanagere",
  "annavaram",
  "eluru",
  "belgaum",
  "sagara",
  "ranebennur",
  "haveri",
  "melthi",
  "masyana",
  "manakala",
  "marotan",
  "bhatkal",
  "nagrota",
  "nadaun",
  "morang",
  "vellakoil",
  "shajapur",
  "bhimashankar",
  "rajgurunagar",
  "madgaon",
  "dhrangdhra",
  "salasar",
  "avinashipalayam",
  "dewas",
  "sahajapura",
  "baggar",
  "badarwas",
  "bandarduwa",
  "kashimira",
  "madhavpur",
  "erravaram",
  "kalamb",
  "badvel",
  "jhalod",
  "kothara",
  "gogamukh",
  "paratwada",
  "kangoo",
  "bayyanagudem",
  "udaipur",
  "vandiperiyar",
  "murliganj",
  "kalagarh",
  "murtuzapur",
  "solapur",
  "sibsagar",
  "navaladi",
  "esselworld",
  "zahirabad",
  "satlasana",
  "thuravoor",
  "betul",
  "pandhurna",
  "sringeri",
  "dhinoj",
  "jayapura",
  "balehonnur",
  "kinnigoli",
  "mulky",
  "hebri",
  "kokkarne",
  "pulgaon",
  "moubandha",
  "savarkundla",
  "gurgaon",
  "raipur",
  "dergaon",
  "godhra",
  "basmath",
  "dharampur",
  "mabukala",
  "navanagar",
  "cuddapah",
  "utthangarai",
  "sujangarh",
  "mugij",
  "firojpur",
  "vijjeshwaram",
  "horanadu",
  "kumbhashi",
  "hukkeri",
  "dharni",
  "digras",
  "kalyannaka",
  "mandal",
  "chanasma",
  "baghapurana",
  "umred",
  "anoopgarh",
  "raiwala",
  "toliyasar",
  "merath",
  "deravyas",
  "jawra",
  "valukad",
  "kaiga",
  "muktsar",
  "jagraon",
  "vijaypur",
  "mukeria",
  "chikhali",
  "thekkatte",
  "baddi",
  "nidamaru",
  "devrajiya",
  "triprayar",
  "bhanchha",
  "jalod",
  "jaisinghpur",
  "nanduri",
  "gomtichoraya",
  "godbandar",
  "hathgoan",
  "hanumangadh",
  "mopidevi",
  "jaipurkarnataka",
  "bamnod",
  "aburoad",
  "mantada",
  "tanda",
  "ponda",
  "badnera",
  "kopargaon",
  "tirupati",
  "hyderabadsightseeing",
  "movva",
  "madaga",
  "marzan",
  "maravoor",
  "kallikandy",
  "rehan",
  "viramgam",
  "thirumayam",
  "rohru",
  "karempudi",
  "mudalgi",
  "mangalore",
  "kazhakootam",
  "siwan",
  "karunagapilly",
  "nellikatte",
  "gabbur",
  "kaloor",
  "chidava",
  "nimaheda",
  "varangaon",
  "mandsaur",
  "khammam",
  "thana",
  "narichowkdi",
  "jamkhed",
  "bhandup",
  "kurla",
  "motihari",
  "dakor",
  "badava",
  "sainwala",
  "shirol",
  "tuni",
  "muzaffarpur",
  "jindal",
  "mulund",
  "bidada",
  "muppavaram",
  "ashtavinayak",
  "billara",
  "chandigarh",
  "belapur",
  "atreyapuram",
  "annavarapadu",
  "shimoga",
  "s.p.pattinam",
  "vinjamur",
  "sehore",
  "landgewadi",
  "nevasa",
  "bara",
  "katlicherra",
  "karimnagar",
  "malegaon",
  "parangipettai",
  "sarambhada",
  "vankiya",
  "medi",
  "gopalgram",
  "eethakota",
  "vele",
  "tharamangalam",
  "kavitam",
  "sarasiya",
  "racharla",
  "madhavapatnam",
  "visavadar",
  "mahwa",
  "kruthivennu",
  "chennapatnam",
  "madras",
  "dondaicha",
  "bestavaripeta",
  "charbhuja",
  "mogralputhur",
  "junagadh",
  "dandeli",
  "keshod",
  "somnath",
  "gerusoppa",
  "manki",
  "veraval",
  "mavinagundi",
  "revatda",
  "murudeshwar",
  "meghper",
  "badnawar",
  "savanur",
  "ranakandola",
  "murickassery",
  "swaroopganj",
  "banas",
  "kenpura",
  "malsika",
  "kotdwara",
  "kuchaman",
  "kotputali",
  "behrod",
  "ladnu",
  "didwana",
  "pandavapura",
  "kallupatti",
  "pallipatti",
  "kakapalayam",
  "thoothukudi",
  "jawara",
  "sujangadh",
  "gangrar",
  "achanta",
  "brahmancheruvu",
  "deedwana",
  "jasol",
  "cumbum",
  "juvvalapalem",
  "bidar",
  "kolki",
  "sarni",
  "bhanvad",
  "chala",
  "surangudi",
  "kolathur",
  "paralachi",
  "perunali",
  "vakiya",
  "velapur",
  "mangalagiri",
  "nasik",
  "uppinangadi",
  "poladpur",
  "surva",
  "pandharpur",
  "srirampur",
  "tapola",
  "pipari",
  "varasda",
  "panhala",
  "chebrolu",
  "engaon",
  "vinayaka",
  "nesari",
  "harankhedphata",
  "motanwadi",
  "patharkandi",
  "ghankheda",
  "punganur",
  "kadiri",
  "rayachoti",
  "kalakada",
  "dharva",
  "falna",
  "hirapur",
  "palamaner",
  "chandrapur",
  "pamaru",
  "pusad",
  "digraj",
  "karanja",
  "angallu",
  "vani",
  "nilanga",
  "naduvakurichi",
  "tatacolony",
  "ratdi",
  "mudradi",
  "sahebganj",
  "zabuva",
  "tulajapur",
  "vasudevanallur",
  "sanawad",
  "rudrapur",
  "plasi",
  "gangakhed",
  "faizpur",
  "dharangaon",
  "erandol",
  "dharwa",
  "akot",
  "avanigadda",
  "vytilla",
  "nargund",
  "kirimanjeswar",
  "yadagiri",
  "balbleshwar",
  "peikulam",
  "barabanki",
  "urai",
  "vuyyuru",
  "uppargudem",
  "ambajireturn",
  "penduru",
  "turuvekere",
  "talere",
  "malaparajagudem",
  "upponi",
  "talegav",
  "thithimathi",
  "hublibypass",
  "bapatla",
  "bhainsa",
  "namakkal",
  "khandwa",
  "balkonda",
  "adoor",
  "ilkal",
  "nanded",
  "charna",
  "chindi",
  "vadanapilly",
  "valunj",
  "bhoranj",
  "bhota",
  "bhunter",
  "bhutti",
  "bijhar",
  "bithal",
  "chailchowk",
  "chambi",
  "krishnagiribypass",
  "lohara",
  "addanki",
  "agar",
  "chithodebypass",
  "narangwadi",
  "akividu",
  "kaikaluru",
  "sabla",
  "watar",
  "thalainayar",
  "mogalturu",
  "punedarshan",
  "dehu",
  "parkala",
  "bhaindar",
  "sikar",
  "ramgarh",
  "data",
  "siddapura",
  "ringas",
  "rippinapete",
  "kollur",
  "hastinapur",
  "neralakatte",
  "bihpuria",
  "malerkotla",
  "osmanabad",
  "biswanathcharali",
  "hunsemakki",
  "bidkalkatte",
  "narkanda",
  "kokrud",
  "nerchowk",
  "nainatikker",
  "kallakurichi",
  "namhol",
  "nankhari",
  "kumadhavalli",
  "nerwa",
  "nigulsari",
  "ghandla",
  "mahipalacheruvu",
  "edappal",
  "kottayam",
  "meriyana",
  "sagwada",
  "waturphata",
  "thamarassery",
  "mananthavady",
  "seithur",
  "tirur",
  "chemmad",
  "ooty",
  "karad",
  "thulasiyapattinam",
  "chathannoor",
  "kottiyam",
  "kankeshwar",
  "ettaiyapurambypass",
  "rajmachi",
  "baijnath",
  "deulgaonmahi",
  "jhalawar",
  "mangalwad",
  "imphal",
  "mahagaon",
  "manavadar",
  "baindur",
  "thaliparamba",
  "palampur",
  "wyra",
  "lakhnadoun",
  "panavaram",
  "trasi",
  "dibrugarh",
  "swarofganj",
  "ron",
  "hutti",
  "kodairoad",
  "barkur",
  "srisailam",
  "mashrakh",
  "puttur",
  "wayanad",
  "dharwad",
  "yedapadav",
  "mijar",
  "modhera",
  "kundapur",
  "umarkhed",
  "pangire",
  "uttur",
  "shetphal",
  "andimadam",
  "velankanni",
  "sundupalli",
  "nallapadu",
  "telhara",
  "mudrangandi",
  "bhadgaon",
  "hatta",
  "rawala",
  "mehsana",
  "rabakavi",
  "jamshedpur",
  "varagani",
  "nari",
  "kolhar",
  "akbarpur",
  "bakewar",
  "firozabad",
  "jasawantnagar",
  "sethubavachatram",
  "baleswar",
  "chhotisadri",
  "datia",
  "jaitaran",
  "kalandri",
  "nawanshahar",
  "machiyalanana",
  "mangvapal",
  "nandishma",
  "balapur",
  "konandur",
  "chital",
  "mathilakam",
  "naharkatia",
  "sanderao",
  "sullurpet",
  "nedumboil",
  "phaltan",
  "vadviyala",
  "bileipada",
  "punjaipuliyampatti",
  "nirjulee",
  "sathyamangalam",
  "joda",
  "kathipudi",
  "jawal",
  "wadsa",
  "jayankondam",
  "barloot",
  "jaunpur",
  "naguru",
  "koppal",
  "karanpur",
  "kalimati",
  "telaprolu",
  "namrup",
  "mhapral",
  "shenale",
  "gaontalebusstop",
  "ambet",
  "mahalunge",
  "mumbaicrawfordmarket",
  "dhutroli",
  "modasa",
  "thiruvannamalai",
  "dharmapuri",
  "mathal",
  "kochi",
  "cherthala",
  "kopam",
  "kathmandu",
  "kutiyanabypass",
  "manuguru",
  "aswapuram",
  "narayanghat",
  "beawer",
  "ajmer",
  "hemmadi",
  "haridwar",
  "erattupetta",
  "jaipur",
  "kopergoan",
  "dharmshala",
  "khanapur",
  "kolhapur",
  "salur",
  "shirva",
  "samagoga",
  "thirukoshtiyur",
  "hailakandi",
  "rahon",
  "barwaha",
  "rahmatabad",
  "rau",
  "vikarabad",
  "onthibettu",
  "motimarad",
  "kalana",
  "borlipanchatan",
  "polamuru",
  "paddhari",
  "chadiya",
  "sajiyavadar",
  "lanka",
  "hojai",
  "harangajao",
  "haripar",
  "bhingrad",
  "deshgaon",
  "kaushambi",
  "luvara",
  "muchandi",
  "tirumangalam",
  "mhasala",
  "maihar",
  "koday",
  "rowta",
  "katni",
  "vettavalam",
  "madha",
  "ingorala",
  "ariyalur",
  "chengalpattu",
  "chalala",
  "bakragam",
  "devla",
  "tripunithura",
  "bavtra",
  "puthupally",
  "pandharpurakkalkottuljapur",
  "noojadi",
  "aamaran",
  "veerpur",
  "mandarmani",
  "gulabpura",
  "himmatnagar",
  "vempalli",
  "jammalamadugu",
  "erraguntla",
  "anupgarh",
  "garsana",
  "pilibhanga",
  "ozar",
  "varanasi",
  "vadakkanchery",
  "vadkal",
  "kabani",
  "kamkheda",
  "mukramabad",
  "etah",
  "belthararoad",
  "ajra",
  "annur",
  "ahmednagar",
  "dhampur",
  "edur",
  "dohrighat",
  "karvi",
  "eachoor",
  "kotakpura",
  "nandikur",
  "channagiri",
  "murnad",
  "holalkere",
  "sadabad",
  "attur",
  "dabhol",
  "koothattukulam",
  "chitvel",
  "gangakher",
  "roorkee",
  "magadi",
  "lohagad",
  "jonpur",
  "narayanapuram",
  "vijayapura",
  "jassur",
  "vijapura",
  "chikkamagaluru",
  "ballari",
  "teosa",
  "kakira",
  "chottanikkara",
  "pydibimavaram",
  "harsud",
  "pedaravuru",
  "madagupatty",
  "pattukotai",
  "gollapalem",
  "gokharwala",
  "devgalraja",
  "shalaghat",
  "bathalapalli",
  "kaleyakavelai",
  "rajampet",
  "nandyala",
  "bableshwar",
  "mohankheda",
  "kumbakonam",
  "buldhana",
  "khetri",
  "palakonda",
  "sarkaghat",
  "islampur",
  "kandrour",
  "kalamboli",
  "pen",
  "akaramarutikolhapurwadi",
  "odakkali",
  "illayangudi",
  "ayarkunnum",
  "kuruppampady",
  "palcot",
  "perundhurai",
  "mondaymarket",
  "ichalkaranjibypass",
  "naugaon",
  "spicnagar",
  "pathavada",
  "simaluguri",
  "srikandapuram",
  "ottanchathiram",
  "aryankavu",
  "kunda",
  "valasana",
  "edamon",
  "nagoor",
  "kundara",
  "kheralu",
  "deoni",
  "ranakpur",
  "dharwadbypass",
  "nathdawara",
  "ganapavaram",
  "uvari",
  "turchi",
  "pippara",
  "takari",
  "udayagiri",
  "shenolistation",
  "saharanpur",
  "kodad",
  "rahta",
  "siddhatek",
  "ardavaram",
  "kansur",
  "sayarpuram",
  "pardi",
  "nazarath",
  "eral",
  "sankhesavar",
  "thevaram",
  "asspur",
  "tenkasi",
  "thalaguppa",
  "ranipet",
  "ambur",
  "kilasevalpatti",
  "mylapore",
  "pillayarpatti",
  "vairavanpatti",
  "athangudi",
  "kundrakudi",
  "mayavaram",
  "shenkottai",
  "bhadragiri",
  "manur",
  "panaghar",
  "alangulamtnc",
  "podili",
  "cheruvattoor",
  "munjiyasar",
  "samrala",
  "burhanpur",
  "hadgaon",
  "visavdar",
  "nanimolpari",
  "bardiya",
  "dadar",
  "kasegaon",
  "channarayapattana",
  "shankaragatta",
  "totu",
  "tunuhatti",
  "tulah",
  "panna",
  "alsindi",
  "vansada",
  "sandolu",
  "karlapalem",
  "reddypalem",
  "epurupalem",
  "rithad",
  "dindigul",
  "dholpur",
  "bhorsi",
  "aasind",
  "calicut",
  "bagalkot",
  "hubli",
  "trichy",
  "annavarambypass",
  "karadbypass",
  "komaanapalli",
  "nippanibypass",
  "sankeshwarbypass",
  "verna",
  "viregaon",
  "calangute",
  "bellurcross",
  "ambikanagar",
  "banavara",
  "chitradrugabypass",
  "palasa",
  "karanjia",
  "tripura",
  "godankatte",
  "haluvali",
  "jundal",
  "marayur",
  "singanallur",
  "pendlimarri",
  "kalavad",
  "poonthottam",
  "vijayanagaram",
  "uravakonda",
  "kalthoor",
  "kannar",
  "seminarkoil",
  "krishnapura",
  "belman",
  "kukunoor",
  "koolur",
  "koratagere",
  "konanur",
  "bailur",
  "hiriyadka",
  "kaikamba",
  "gurupura",
  "ranka",
  "madathukulam",
  "kesariya",
  "limbdi",
  "supedi",
  "bhairamgarh",
  "chichola",
  "bijapur",
  "palakoderu",
  "torna",
  "noida",
  "margoa",
  "shirolephata",
  "sasangir",
  "kagal",
  "ratlam",
  "sardargarh",
  "sanderav",
  "meghnagar",
  "senapati",
  "takhatgarh",
  "unava",
  "unjha",
  "sakthinagar",
  "nabarangpur",
  "sanoorkarkala",
  "muttuchira",
  "pangala",
  "harugeri",
  "sawada",
  "melnariyappanur",
  "sapar",
  "bargi",
  "khawasa",
  "dhuma",
  "hanagal",
  "sahada",
  "luxettipet",
  "hanur",
  "hadolti",
  "nagaur",
  "samlaji",
  "perdoor",
  "sirurtajband",
  "karauli",
  "hatkanagle",
  "shapura",
  "modinagar",
  "khatoli",
  "sadulsahar",
  "rajsamand",
  "bherod",
  "kalakkad",
  "yadur",
  "panaikulam",
  "uthangarai",
  "bichhiwada",
  "bhrahanpur",
  "thiruverkadu",
  "raigunj",
  "bagdu",
  "badnapur",
  "jamkhambhalia",
  "bheshan",
  "batva",
  "baswada",
  "bagra",
  "vekariya",
  "brahmapuri",
  "mandapet",
  "mandawariya",
  "pulla",
  "areekode",
  "idor",
  "kotdi",
  "yerragondapalem",
  "arumuganeri",
  "talatady",
  "uppugunduru",
  "devanurpudur",
  "ramanujganj",
  "leh",
  "mandya",
  "badarpur",
  "samayapuram",
  "ranikhet",
  "almora",
  "punjapadar",
  "liliya",
  "bangarupalem",
  "sampaje",
  "bilaspur",
  "alathur",
  "sitapur",
  "uppinakote",
  "pratapgarh",
  "dhaneta",
  "khalghat",
  "kishanghar",
  "puthuchery",
  "nerul",
  "gomti",
  "bhim",
  "kankroli",
  "chittaurgarh",
  "thudiyalur",
  "gulapura",
  "parasia",
  "barvala",
  "ramesampeta",
  "itava",
  "perurupeta",
  "trikaripur",
  "phagwara",
  "tallapudi",
  "peruru",
  "kolapulli",
  "barghat",
  "parbhani",
  "gudimangalam",
  "bhachau",
  "shegaon",
  "sullurupeta",
  "bhiwandi",
  "kalyan",
  "basrur",
  "komaralingam",
  "sonkatch",
  "ashta",
  "sattenapalli",
  "badhada",
  "arrah",
  "railwaykoduru",
  "bidarugod",
  "begar",
  "kulasai",
  "barshi",
  "palus",
  "oriya",
  "kankot",
  "bhader",
  "karjala",
  "charkhadiya",
  "needamanglam",
  "kommuru",
  "loha",
  "kalikiri",
  "gangolli",
  "tiruthanni",
  "poonamallee",
  "karukachal",
  "tumuluru",
  "boatcruise",
  "mallappally",
  "harij",
  "diu",
  "mahuva",
  "nanguneri",
  "kolachel",
  "jamnagar",
  "dadabhagwan",
  "cholingar",
  "porur",
  "ramsin",
  "saoner",
  "terdal",
  "kumbhirgram",
  "bali",
  "kelwa",
  "soron",
  "badni",
  "gopamau",
  "bhelsar",
  "shamli",
  "rawatpur",
  "chhibramau",
  "chunniganj",
  "mumbai-sion",
  "mahoba",
  "katghar",
  "pollibetta",
  "amdapur",
  "kalachal",
  "karampudi",
  "ayyampettai",
  "dwarkathirumala",
  "gundugolanu",
  "shivni",
  "dawaleswaram",
  "ashti",
  "margerita",
  "digboi",
  "sawantwadi",
  "atthikadai",
  "palakkad",
  "gondal",
  "dhoraji",
  "jetpur",
  "karmala",
  "pachal",
  "gadchiroli",
  "motala",
  "naduvil",
  "k.r.pet",
  "iitpawai",
  "senkottai",
  "chhatrapur",
  "pimpri",
  "perla",
  "palsana",
  "ichchapuram",
  "parad",
  "nadaguddeangadi",
  "duggiralla",
  "mahudha",
  "kvmkpetrolbunk",
  "parassala",
  "ervadi",
  "mysuru",
  "mangaluru",
  "hosapete",
  "kalaburgi",
  "kathlal",
  "kanbha",
  "tumakuru",
  "kanchipurambyepass",
  "mandideep",
  "bulandshahr",
  "angalakuduru",
  "aligarh",
  "aralikottai",
  "avanam",
  "meerut",
  "parthibanur",
  "pudukottai",
  "ramnad",
  "padukone",
  "dehlakhedi",
  "patan",
  "rajaldesar",
  "mumbai-vashi",
  "keelaeral",
  "kalka",
  "palladam",
  "payangadi",
  "namtola",
  "mayapuriskcon",
  "yarravaram",
  "faridkot",
  "malog",
  "haleangadi",
  "rampur",
  "jagannapeta",
  "kannur",
  "ausa",
  "addapara",
  "valancheri",
  "auradshahajani",
  "kaniyur",
  "palakkadbypass",
  "kanipakam",
  "walandi",
  "kattuputhur",
  "kanakapura",
  "magaon",
  "santhekatte",
  "dhulia",
  "dhekiajuli",
  "bhimadolu",
  "sarugani",
  "sokkanadhapuram",
  "kodamanchili",
  "relangi",
  "karatagi",
  "paramathi",
  "karunkal",
  "duvva",
  "jeelugumilli",
  "sempathi",
  "tatanagar",
  "siliguri",
  "jat",
  "koita",
  "puri",
  "kamlighat",
  "thirupathi",
  "patna",
  "murshidabad",
  "rajesultanpur",
  "konapattu",
  "thiruvarur",
  "kaup",
  "dharmastala",
  "naguluppalapadu",
  "radhapuram",
  "koodankulam",
  "washim",
  "paramankurichi",
  "bhalgam",
  "arate",
  "mullikatte",
  "bantwady",
  "ampar",
  "belve",
  "alangaru",
  "batala",
  "dhariwal",
  "babapur",
  "gurdaspur",
  "mandvada",
  "jaliya",
  "navapur",
  "bagasara",
  "kapu",
  "amb",
  "ayalur",
  "sadalga",
  "lalganj",
  "dalmau",
  "sathenpalli",
  "duttalur",
  "sirkazhi",
  "nippani",
  "pappakudi",
  "tirupur",
  "erode",
  "ichalkaranji",
  "karaikal",
  "chidambaram",
  "cuddalore",
  "pondicherry",
  "chittod",
  "lakkidi",
  "tiruchendur",
  "vita",
  "dasanakoppa",
  "devanahalli",
  "ganagapur",
  "sriharikota",
  "hadinbal",
  "hulikal",
  "kaveripakkam",
  "kittur",
  "kathgal",
  "maduraibypass",
  "sidhantham",
  "ilkalbypass",
  "valliyurbypass",
  "sagar",
  "periyamedu",
  "salaya",
  "kuttikkanam",
  "limdi",
  "yerravaram",
  "addavaram",
  "belthangady",
  "guruvayankere",
  "dharmasthala",
  "nilambur",
  "madhugiri",
  "coimbatore",
  "puneairport",
  "dholiyokuvo",
  "karkala",
  "nette",
  "dantewada",
  "bacheli",
  "talebazar",
  "namburxroad",
  "pachwara",
  "masthikatte",
  "tadipatri",
  "jagdalpur",
  "geedam",
  "bhanpuri",
  "bastar",
  "visnagar",
  "vadal",
  "satodad",
  "mandiahmadgarh",
  "yallapura",
  "sonauli",
  "bori",
  "mangrulpir",
  "lodkiya",
  "abudarshan",
  "jabalpur",
  "goganda",
  "bardoli",
  "sarwaniya",
  "mavli",
  "ratanpur",
  "thugundram",
  "fathenagar",
  "hyderabad",
  "narayanpur",
  "vagara",
  "parvatipuram",
  "madurai",
  "padampur",
  "mangalapuram",
  "nitk",
  "bobbili",
  "melukote",
  "jaipursightseeing",
  "chitulur",
  "moulasar",
  "dolatpura",
  "diggi",
  "mumbai",
  "uppinaangadi",
  "dabra",
  "behror",
  "nadiyad",
  "dolkamal",
  "dolatper",
  "dudhai",
  "chandrai",
  "desalpar",
  "katapady",
  "delhiairport",
  "gadu",
  "ghaduli",
  "kozhikode",
  "bhuj",
  "davanegerebypass",
  "thane",
  "rampara",
  "yellapur",
  "karjan",
  "mancheri",
  "kobadi",
  "seruguppa",
  "pindwara",
  "ruraki",
  "sppattinam",
  "khavdi",
  "prantij",
  "dhansa",
  "kalasapadu",
  "panyam",
  "s.konda",
  "ettayapuram",
  "nedungandam",
  "sulur",
  "salal",
  "valetivaripalem",
  "raebareli",
  "lumding",
  "varanga",
  "muktainagar",
  "thenkasi",
  "mukaani",
  "fatehpur",
  "ujjain",
  "alanthalai",
  "tiruvannamalai",
  "bikaner",
  "avidi",
  "talikoti",
  "nidagundi",
  "panja",
  "vai",
  "shiyawat",
  "canacona",
  "mapsa",
  "nokha",
  "pandithavalluru",
  "kodinar",
  "vasmat",
  "songadh",
  "parchur",
  "morbi",
  "bansi",
  "coonoor",
  "kutiyana",
  "kandalur",
  "chembur",
  "dungla",
  "narsi",
  "puttaparthy",
  "peria",
  "kannavam",
  "etawah",
  "bhiloda",
  "idar",
  "gorakhpur",
  "belvadi",
  "garage",
  "gaddanakericross",
  "bajagoli",
  "beluve",
  "goliangadi",
  "gajendragadh",
  "kuknur",
  "rajamundry",
  "pathri",
  "tupran",
  "kalayarkoil",
  "bhavanipar",
  "nawalgarh",
  "nayakanakatte",
  "kanjanagadu",
  "uoorvambu",
  "kaithapoyil",
  "mangalagiribypass",
  "abu",
  "engapuzha",
  "ambattur",
  "avadi",
  "bhatiya",
  "dwarka",
  "khambhalia",
  "hombadi",
  "baytu",
  "bhivghat",
  "papanad",
  "siddapur",
  "songirphata",
  "shapar",
  "suchindram",
  "talaja",
  "shadnagar",
  "hatid",
  "sarat",
  "tetvali",
  "asond",
  "nargoli",
  "kumbhave",
  "kherwara",
  "kalyanpura",
  "sandur",
  "salethur",
  "sedam",
  "saundatti",
  "kothagudem",
  "kolkata",
  "saraswathipuram",
  "kudal",
  "kankavli",
  "padru",
  "chhindwara",
  "kalpakam",
  "shamlaji",
  "baroda",
  "jagun",
  "bhadrachalam",
  "mudalur",
  "hingoli",
  "kadaiyanallur",
  "courtallam",
  "ajinkyatara",
  "alibag",
  "alamuru",
  "kandagara",
  "mahud",
  "thammampatti",
  "aversa",
  "banda",
  "merta",
  "nanimonpari",
  "dhalegaon",
  "kansbahal",
  "umreth",
  "manchekal",
  "bhor",
  "manor",
  "usmanabad",
  "dhalgaon",
  "lalitpur",
  "ashoknagar",
  "uppoor",
  "ramdurg",
  "thittuvilai",
  "vemavaram",
  "sultanpur",
  "ermal",
  "gobichettipalaiyam",
  "umbraj",
  "mudukulathur",
  "sigandur",
  "morba",
  "yaval",
  "kadaladi",
  "kumble",
  "vaibhavwadi",
  "jamner",
  "indi",
  "burambavade",
  "passighat",
  "harne",
  "nagaram",
  "bhavanibypass",
  "anandvihar",
  "auraiya",
  "alangulam",
  "sanavat",
  "nimbahera",
  "krishnapatnam",
  "machavaram",
  "jadadevi",
  "nidhori",
  "lakhipur",
  "onkareshwar",
  "murena",
  "sumerpur",
  "mudhol",
  "kalamaserry",
  "ernakulamby-pass",
  "udma",
  "nittur",
  "thalasserry",
  "tikkar",
  "sonda",
  "sitarganj",
  "tihra",
  "gamharia",
  "bovikanam",
  "tounidevi",
  "dhanbad",
  "dharamsthala",
  "allahabad",
  "hili",
  "ajaygarh",
  "malda",
  "jagarlamudi",
  "mavelikkara",
  "chenchupet",
  "mantralaya",
  "selvas",
  "godavarikhani",
  "enikapadu",
  "yermal",
  "hampi",
  "ajanta",
  "uhal",
  "azhagiyamandapam",
  "lalpur",
  "ettimadi",
  "sayan",
  "rudki",
  "mehtachowk",
  "harkurcross",
  "guddeangadi",
  "wangtu",
  "harmannu",
  "mandapasalai",
  "kattinamaki",
  "nada",
  "dabhashi",
  "jadkal",
  "jannal",
  "dhangdhra",
  "naseerabad",
  "panjim",
  "sendva",
  "mallapur",
  "aundh",
  "markapur",
  "kadara",
  "seoh",
  "mhow",
  "sandhol",
  "samoh",
  "samba",
  "salaper",
  "degaon",
  "salumber",
  "karjat",
  "kostal",
  "nilanggaaurad",
  "nujari",
  "uchipuli",
  "keelakarai",
  "nimbada",
  "dungargarh",
  "amboli",
  "batiyagarh",
  "ambernath",
  "gunturbypass",
  "tunibypass",
  "dahod",
  "nandimandalam",
  "maganthyar",
  "deesa",
  "thalaku",
  "chikkaballapur",
  "kulappully",
  "sakleshpur",
  "bylur",
  "hassan",
  "bhairumbe",
  "sikka",
  "berhampore",
  "mendarda",
  "kuttipuram",
  "echoor",
  "doranhalli",
  "donimalai",
  "devarhipparagi",
  "halageri",
  "gubbi",
  "erumalai",
  "edpaal",
  "sawariya",
  "hasanur",
  "rachuru",
  "butati",
  "vaghaniya",
  "kodaikanal",
  "quilandy",
  "rahuri",
  "talada",
  "srirangapatnam",
  "maranda",
  "vermanagar",
  "thalyolaparampa",
  "chikmagalur",
  "lamblu",
  "lambidhar",
  "langna",
  "kaikatti",
  "machhial",
  "mandhol",
  "jaitu",
  "atpadi",
  "yanam",
  "sundankottai",
  "junoni",
  "mannarkkad",
  "dipnagar",
  "thakalai",
  "saverdem",
  "tanjore",
  "koregaon",
  "kathgodam",
  "tirunchenkod",
  "nigdi",
  "srikakulam",
  "saswad",
  "gavan",
  "shillong",
  "chandurbazar",
  "virudhachalam",
  "pilathara",
  "pariyaram",
  "valbhipur",
  "mukundgarh",
  "dharapuram",
  "balaramapuram",
  "pasuvanthanai",
  "belur",
  "nellore",
  "puthiamputhur",
  "parvadi",
  "koda",
  "vmbanjar",
  "kamanayakkanpatti",
  "sambhar",
  "talikote",
  "mudabidre",
  "surpur",
  "hemal",
  "malshejghat",
  "pedanandipadu",
  "ootanchathiram",
  "kihim",
  "kudalsangam",
  "dudhala",
  "sindhnur",
  "sirguppa",
  "gangada",
  "kuttiady",
  "kandukuru",
  "umadi",
  "martur",
  "garhshankar",
  "sadashivpet",
  "sajjangad",
  "kotada",
  "thirumalayapalem",
  "silapathar",
  "ujjaini",
  "kodali",
  "koteshwara",
  "suratgarh",
  "korutla",
  "khurja",
  "vagga",
  "chikhli",
  "kotekar",
  "alur",
  "barakar",
  "amet",
  "khombhadi",
  "konkandarshan",
  "bodwad",
  "saquelim",
  "bicholim",
  "lonar",
  "marcel",
  "maninagar",
  "puduvalasai",
  "shipur",
  "padukkapathu",
  "sion",
  "karamchedu",
  "pidugurala",
  "rayadurg",
  "bodhan",
  "hyderabadairport",
  "rajnandgav",
  "mandapam",
  "jalakandapuram",
  "muddanur",
  "valappadi",
  "pattikkad",
  "dhone",
  "keeranur",
  "bavani",
  "churu",
  "devri",
  "pinwara",
  "airoli",
  "pandarkavda",
  "fedra",
  "javagal",
  "sakharayapatna",
  "daryapur",
  "yendagandi",
  "jamboti",
  "inchal",
  "itagi",
  "jagalur",
  "kenjoor",
  "eramalloor",
  "napoklu",
  "hosmar",
  "chempi",
  "undrajavaram",
  "tetali",
  "bannadkabelvai",
  "kokkada",
  "koottanad",
  "athradi",
  "mankuwa",
  "manchakal",
  "pekeru",
  "daggubadu",
  "aategaon",
  "gopalganj",
  "ammapattinam",
  "edappadi",
  "oni",
  "bhuibavada",
  "zerophata",
  "kattumavidi",
  "nagercoil",
  "kudligi",
  "maravanthe",
  "manipal",
  "pulletikurru",
  "udupi",
  "kherdi",
  "chiragaon",
  "raybag",
  "kumbharwadi",
  "chennur",
  "bhinder",
  "therthally",
  "korlahalli",
  "shaygad",
  "aluva",
  "chandurbazaar",
  "puliyangudi",
  "kanhangad",
  "utchipuli",
  "anjugramam",
  "morthad",
  "kallakuru",
  "panoor",
  "pollachi",
  "jagityal",
  "kammarpally",
  "metpally",
  "nawada",
  "bikkavolu",
  "alagankulam",
  "proddutur",
  "kanpur",
  "dharmavaram",
  "sheoganj",
  "pumpwell",
  "pushkar",
  "pulpally",
  "udyavara",
  "kuppalli",
  "betma",
  "chanderi",
  "anaimalai",
  "sahabad",
  "ajeetgarh",
  "vettaikaranpudur",
  "chittorgarh",
  "manavalakurichi",
  "jodhpur",
  "jath",
  "sindari",
  "padupanambur",
  "mandagada",
  "bhildi",
  "kej",
  "kotturu",
  "kuravilagad",
  "agartala",
  "belagavi",
  "hubballi",
  "basar",
  "darapuram",
  "virthunagar",
  "mangalwedha",
  "charoti",
  "jalsoor",
  "ambasamutram",
  "khamnor",
  "vapi",
  "vikramasingapuram",
  "kumbrugodu",
  "arehole",
  "n.g.oquartersclt",
  "nakhatrana",
  "vatalagundu",
  "hagaribommanahalli",
  "saputara",
  "karukutty",
  "sithode",
  "pallipalayam",
  "nedumudy",
  "nira",
  "padgaon",
  "ojhar",
  "maravamangalam",
  "kheenwasar",
  "gaduli",
  "kotda",
  "lakshmankudi",
  "kallal",
  "vadakankulam",
  "vadamadurai",
  "avadh",
  "kammakandriga",
  "kalmane",
  "kaladgi",
  "kodungoor",
  "kanakagiri",
  "thiruthangal",
  "veppankadu",
  "rajgir",
  "rajupalem",
  "madagupatti",
  "vaimedu",
  "erodebypass",
  "pipali",
  "singarayapalem",
  "sirunadarkudiyiruppu",
  "dalkhola",
  "burdwan",
  "vanathirupathi",
  "dehrdachowraha",
  "berhampur",
  "cuttack",
  "akluj",
  "bhognipur",
  "balurghat",
  "asansol",
  "pullampet",
  "hosadurga",
  "ankleshwar",
  "nadapuram",
  "raniwada",
  "pragpar",
  "nandgaon",
  "kharepaten",
  "nashik",
  "kothacheruvu",
  "nellai",
  "thumakur",
  "honnali",
  "pumpwelcirclemangalore",
  "anchtageri",
  "k.r.nagar",
  "mumbaithane",
  "ernakulam",
  "thural",
  "haripad",
  "alapuzha",
  "kollam",
  "kayamkulam",
  "goa",
  "trivandrum",
  "sulah",
  "swarghat",
  "taradevi",
  "tarkwari",
  "thakurdwara",
  "ganjimatt",
  "kalpi",
  "hatti",
  "dholera",
  "diglur",
  "pipara",
  "deulgaonraja",
  "panipat",
  "malkipuram",
  "dudu",
  "gargoti",
  "kadodra",
  "ananthapalli",
  "chinchwad",
  "ankadiya",
  "kunkavav",
  "rajnandgaon",
  "kaduthuruthi",
  "poona",
  "harihara",
  "toranagallu",
  "guntakal",
  "arsikere",
  "parola",
  "thumbe",
  "nelyady",
  "balaghat",
  "kottapattinam",
  "arjunsar",
  "mahajan",
  "rawatsar",
  "kadur",
  "cannanore",
  "bhadra",
  "hisar",
  "dubacherla",
  "orthanad",
  "nilbagan",
  "arni",
  "mookambika",
  "kapoli",
  "assekoli",
  "lakhanpur",
  "ambikapur",
  "batoli",
  "padamatapalem",
  "kanoor",
  "kadaba",
  "kadri",
  "varkhed",
  "madduru",
  "coonorss",
  "wadakkenchery",
  "moonupeedika",
  "dharamshala",
  "kandhar",
  "seethanapalli",
  "kallor",
  "kutangan",
  "lambagaon",
  "marturu",
  "muchur",
  "kotlu",
  "kuddu",
  "kingal",
  "kotkhai",
  "kunihar",
  "kupvi",
  "kufri",
  "kumarsain",
  "cherali",
  "edarikode",
  "riched",
  "pusegaon",
  "mukhed",
  "vadalur",
  "karoli",
  "vizag",
  "tiruchirapalli",
  "honewadi",
  "vignanlaracollege",
  "raikot",
  "hatiwade",
  "tahbarpur",
  "singhana",
  "layjanana",
  "pedapulivarru",
  "thumdi",
  "ramparvekra",
  "ramnagar",
  "araria",
  "virajpet",
  "gadhag",
  "kushtagibypass",
  "nidugundi",
  "perunthalmanna",
  "palghat",
  "gilund",
  "tripurbypass",
  "tatipaka",
  "shambhupura",
  "shahapur",
  "shaktinagar",
  "kothakaluva",
  "raichur",
  "rohtak",
  "savda",
  "baleshwar",
  "kuraj",
  "miao",
  "surathkal",
  "lankalakoderu",
  "nasirabad",
  "manoor",
  "ponnuru",
  "shreedungargadh",
  "hosur",
  "katpadi",
  "malakoli",
  "mandi",
  "badmer",
  "dorimanna",
  "pandurna",
  "bhuvanagiri",
  "pipariya",
  "kakkabe",
  "vadodara",
  "ballamanja",
  "ellapur",
  "thandavankadu",
  "kurukkalpatti",
  "pothakalanvilai",
  "yanambridge",
  "naliya",
  "borala",
  "pattikonda",
  "sathoor",
  "yedsi",
  "talvana",
  "sanand",
  "sarwan",
  "ittamozhi",
  "ramachandrapuramutt",
  "gangawati",
  "karimganj",
  "thiruvananthapuram",
  "mamidikuduru",
  "thirupathur",
  "gwalior",
  "nashikdarshan",
  "panambur",
  "mahabubnagar",
  "raniwara",
  "dhalyara",
  "tarapur",
  "amareshwaracamp",
  "unadi",
  "desaicamp",
  "nardana",
  "munipally",
  "mokshagundam",
  "medapadu",
  "kammardi",
  "motu",
  "gowripatnam",
  "gudmbi",
  "kulur",
  "pawas",
  "nesargi",
  "gantalkatte",
  "narsana",
  "palivela",
  "jammu",
  "pedaamiram",
  "chiplun",
  "mahad",
  "pavoorchatram",
  "manali",
  "kullu",
  "penumantra",
  "hathkamba",
  "unguturu",
  "dadhol",
  "amritsar",
  "changaveti",
  "monipally",
  "ranasthalam",
  "kaikaram",
  "bundi",
  "devali",
  "nagalapuram",
  "niwai",
  "thirthalli",
  "toank",
  "chakshu",
  "sindarli",
  "jojawar",
  "sivakasi",
  "mundara",
  "thurimella",
  "gollalakoderu",
  "guhagar",
  "veeravasaram",
  "dasada",
  "sami",
  "dindivanam",
  "talaivasal",
  "santalpur",
  "aadesar",
  "bhimasar",
  "rapar",
  "thathiengarpet",
  "kalappanaickenpatti",
  "erumapatty",
  "pavithram",
  "namagiripettai",
  "mettupalayam",
  "belukurichi",
  "senthamangalam",
  "palakunnu",
  "murud",
  "sasaram",
  "vaikkom",
  "thalayolaparambu",
  "kalpetta",
  "karur",
  "panakudi",
  "biharsharif",
  "salem",
  "jhumpura",
  "keonjhar",
  "barhi",
  "kakroli",
  "badisadri",
  "rile",
  "koshital",
  "nakodaji",
  "puduvayal",
  "anaparthi",
  "pathsala",
  "baihatachariali",
  "owk",
  "howly",
  "eruvadi",
  "chinchpada",
  "dahiwal",
  "sarwar",
  "macherla",
  "ferozpur",
  "jallalabad",
  "vatlapalem",
  "kadatchapuram",
  "dhansura",
  "ambbor",
  "kherwada",
  "amreli",
  "botad",
  "nimbaj",
  "chithode",
  "gadhada",
  "medarametla",
  "dhar",
  "una",
  "atradi",
  "gonikoppal",
  "ankadakatte",
  "kalindikunj",
  "iswal",
  "vetapalem",
  "padel",
  "jamsande",
  "mangaliyawas",
  "mukatsir",
  "vissakoderu",
  "sirsa",
  "thiruvalla",
  "yelamanchali",
  "tirupathi",
  "joida",
  "marthandam",
  "mannargudi",
  "adirampattinam",
  "koothanallur",
  "sayla",
  "shiror",
  "anathavaram",
  "yedurulanka",
  "pallamkuru",
  "karungal",
  "umrala",
  "sahapur",
  "avudaiyapuram",
  "ralegansiddhi",
  "thandla",
  "y.g-palem",
  "elnabaad",
  "petlawad",
  "chinnathurai",
  "vemagiri",
  "morjar",
  "visakhapatnam",
  "oorambu",
  "pudhur",
  "raipuriya",
  "kidangoor",
  "kishanganj",
  "virar",
  "javad",
  "karal",
  "kazhakkottam",
  "naravi",
  "mukandgarh",
  "navalgarh",
  "balesar",
  "kada",
  "jabhuwa",
  "ghatol",
  "mantha",
  "anavatti",
  "chikkeri",
  "laxmangadrdh",
  "neemkathana",
  "levengipuram",
  "semmanur",
  "nyamathi",
  "malebennur",
  "yadthare",
  "bijoor",
  "kambadakone",
  "jamakkandi",
  "savalanga",
  "nelamangala",
  "losal",
  "mecleodganj",
  "polur",
  "tirumala",
  "gudalur",
  "elurupadu",
  "sompeta",
  "rcpuram",
  "shivana",
  "pamba",
  "lenyadri",
  "kurukshetra",
  "tiruchirapally",
  "nanrol",
  "karnal",
  "paritala",
  "pethri",
  "chikhaldara",
  "kanchikacherla",
  "bir",
  "harishchandragad",
  "simga",
  "suasra",
  "kangayam",
  "ettumanoor",
  "seoni",
  "panathur",
  "deepnagar",
  "cherkala",
  "gokarnacross",
  "tera",
  "lunkaransar",
  "dhule",
  "edappally",
  "hosnagar",
  "attingal",
  "bita",
  "bhadiyadka",
  "viralimalai",
  "nazira",
  "sonari",
  "burrampalem",
  "kalasa",
  "kottigehara",
  "kuduremukha",
  "chhegaonmakhan",
  "balehosur",
  "ankola",
  "mudigere",
  "banavasi",
  "siracha",
  "bhujpar",
  "rampar",
  "dahisara",
  "gudhshisha",
  "junnardeo",
  "bidla",
  "dayaper",
  "waluj",
  "pusapadu",
  "saidapur",
  "pernambut",
  "bar",
  "opilan",
  "sangamner",
  "bodhgaya",
  "cherukupalli",
  "kuruvilangadu",
  "udaipursightseeing",
  "somandepallebypass",
  "deralakatte",
  "anekal",
  "alnavar",
  "somandepalle",
  "brahmavara",
  "bandipur",
  "alike",
  "aldur",
  "bannari",
  "akolawadi",
  "sriperumbur",
  "pappireddipatti",
  "ajara",
  "konaje",
  "sanchore",
  "madilge",
  "vayor",
  "thottekkad",
  "vijapur",
  "bhadvantithe",
  "yadshi",
  "devadurga",
  "wadner",
  "nitte",
  "qaddian",
  "pochampadxroad",
  "haflong",
  "birur",
  "ethakota",
  "sinnar",
  "longadi",
  "laxmeswar",
  "kushtagi",
  "nageshree",
  "manvi",
  "mahalingpur",
  "rohisha",
  "anandpur",
  "nahan",
  "tekkali",
  "duliajan",
  "karwar",
  "arariacourt",
  "arariazeromile",
  "birpur",
  "chapra",
  "darbhanga",
  "forbesganj",
  "hajipur",
  "mao",
  "vallabhvidyanagar",
  "sankeshwara",
  "vizayanagaram",
  "arakkonam",
  "brahmapur",
  "madakshira",
  "kanchipuram",
  "athota",
  "mashobra",
  "sangamjagarlamudi",
  "phanasgaon",
  "talwandi",
  "akkalkot",
  "nawansher",
  "mullanpur",
  "hoshangabad",
  "rajnagar",
  "gangapurcity",
  "nagrotabagwan",
  "multai",
  "itarsi",
  "madukkur",
  "fatehpursikri",
  "naldurg",
  "piplava",
  "risod",
  "shirpur",
  "challapalli",
  "tadepalligudem",
  "anantapurbypass",
  "desapeta",
  "mengalva",
  "tanuku",
  "sillod",
  "dharna",
  "tetri",
  "shirwal",
  "vadali",
  "tanakpur",
  "tikamgarh",
  "pitol",
  "shanishingnapurdarshan",
  "mwar-pkg",
  "kadi",
  "thokottu",
  "krishnanagar",
  "repalle",
  "vedullapalli",
  "tirunelveli",
  "bagoda",
  "mudetipatia",
  "mummidivaram",
  "dhummadia",
  "shikohaabad",
  "sagwara",
  "siyavat",
  "motikhakhar",
  "karavali",
  "sriganganagar",
  "viggaswaram",
  "bhilwada",
  "haladi",
  "kannukere",
  "chalode",
  "cheranmahadevi",
  "eletipadu",
  "kottakkal",
  "aatoor",
  "neemuch",
  "garagaparru",
  "kamlapur",
  "jinnuru",
  "kallidaikurichi",
  "pattamadai",
  "shanivarasanthe",
  "shoolagiri",
  "sholinghur",
  "oupada",
  "siddakatte",
  "sidlaghatta",
  "somanahalli",
  "srinivasapura",
  "sukravarasanthe",
  "surapura",
  "ganpt-pkg",
  "hadi",
  "aachara",
  "sullia",
  "cheravathur",
  "ponamaravathi",
  "gobi",
  "manjeri",
  "ramanattukara",
  "kangal",
  "kalaamb",
  "idaikal",
  "sastana",
  "khopoli",
  "kora",
  "morena",
  "jindalpower",
  "vankaner",
  "chittarkottai",
  "devakottai",
  "wadi",
  "chintaparthi",
  "mettur",
  "aranthangi",
  "mutthupettai",
  "varikuntapadu",
  "swargate",
  "prathipadu",
  "nalegaon",
  "mahagarh",
  "kukdeshwara",
  "rampura",
  "prithvipur",
  "khurai",
  "malthone",
  "gudihatnur",
  "visarwadi",
  "lalbarra",
  "banbasa",
  "mankara",
  "kichha",
  "khedbrahma",
  "nanakmatta",
  "nagram",
  "machkhowa",
  "machkhowachariali",
  "kera",
  "manmad",
  "julwania",
  "ambalapuzha",
  "delhidarshan",
  "amaravati",
  "bharuch",
  "anakara",
  "halvad",
  "malia",
  "peddavadlapudi",
  "nandivelugu",
  "bangaloreintlairport",
  "t.pgudem",
  "chakrda",
  "vaniambad",
  "dhola",
  "vytheswarankoil",
  "budhel",
  "barvada",
  "anjar",
  "kollegal",
  "kodlipet",
  "kanniyakumari",
  "karaikudi",
  "kumsi",
  "kudregundi",
  "lakkavalli",
  "kurugodu",
  "rameswaram",
  "rajapalayam",
  "perungulam",
  "aathankarai",
  "medikonduru",
  "unchadi",
  "zaheerabad",
  "siruguppa",
  "unagatla",
  "triambakeshwar",
  "pathardi",
  "suratkal",
  "vayangani",
  "bejai",
  "sathankulam",
  "srivaikundam",
  "dombivli",
  "sakri",
  "thengaipattanam",
  "waraseoni",
  "shedubhar",
  "baramati",
  "malasapatia",
  "ramgadh",
  "shelapur",
  "hapur",
  "sivana",
  "tripunatura",
  "palacode",
  "shamkhyari",
  "durgapur",
  "senthamaram",
  "namburu",
  "shanishingnapur",
  "nakkapalli",
  "gorane",
  "swamimalai",
  "panaji",
  "todiya",
  "krishnayapalem",
  "denduluru",
  "jalore",
  "gangapur",
  "jade",
  "haunsbhavi",
  "kunwariya",
  "arnej",
  "bigod",
  "mattancherry",
  "janakpur",
  "bhalsar",
  "railmagra",
  "jaipuram",
  "vedaranyam",
  "bilyala",
  "mandalgarh",
  "trivenichauraha",
  "vavera",
  "kavoor",
  "sanoli",
  "jamkandona",
  "ratanpar",
  "kendrapara",
  "sanosara",
  "soyat",
  "srivardhan",
  "koppa",
  "rasaliya",
  "chittode",
  "vyas",
  "badnagar",
  "jaora",
  "pottipadu",
  "dachepalle",
  "veeravalli",
  "shrigonda",
  "talegaon",
  "savadatti",
  "morgaon",
  "mansore",
  "pratapgadh",
  "munavalli",
  "shrirampur",
  "samatra",
  "hinganghat",
  "khajipeta",
  "punjalakatla",
  "shergadh",
  "beed",
  "kanyakumari",
  "kulti",
  "charkala",
  "courtlim",
  "vythiri",
  "erraguntapalli",
  "razam",
  "begur",
  "bellare",
  "aanjangaon",
  "chirawa",
  "chandpur",
  "channapatna",
  "bellur",
  "bajpe",
  "valaparla",
  "timbi",
  "panchgani",
  "pathur",
  "konanki",
  "mechery",
  "singampuneri",
  "sanoor",
  "ghodbandar",
  "yaragatti",
  "mundrigi",
  "thuni",
  "pamuru",
  "thagarapuvalasa",
  "kallambalam",
  "penukondabypass",
  "ponnampet",
  "guruvyapalem",
  "vaniyambadi",
  "mavingundi",
  "narayangaon",
  "hanumasagar",
  "pilibhit",
  "maddur",
  "madhavaram",
  "vedachandur",
  "kalady",
  "sutrapada",
  "kolidam",
  "sayra",
  "selu",
  "rupangadh",
  "sanghipuram",
  "shiroor",
  "mudipu",
  "navuduru",
  "peruvamthanam",
  "pilarkhana",
  "chikkodi",
  "jharsuguda",
  "anandur",
  "dhudhu",
  "thottiyam",
  "vengurla",
  "tumsar",
  "bhavnagar",
  "ambaji",
  "bhubaneswar",
  "kovilpatti",
  "barsar",
  "eklunji",
  "bharari",
  "badel",
  "badsar",
  "bhopal",
  "bankhandi",
  "sunabeda",
  "theni",
  "omkareshwar",
  "vittla",
  "honavar",
  "bidadi",
  "kachhola",
  "kumta",
  "kundheli",
  "kakopather",
  "sirsi",
  "doomdooma",
  "lapaliya",
  "saifai",
  "gokarna",
  "manamadurai",
  "sakari",
  "pedana",
  "yalburga",
  "kanangad",
  "kavutaram",
  "idupulapaya",
  "sukhpar",
  "ramanathapuram",
  "yendapalli",
  "garhmukteshwar",
  "thrippunithra",
  "tiruvananthapuram",
  "komarolu",
  "pathankot",
  "ibrahimpatnam",
  "duriyur",
  "panchanahalli",
  "banahatti",
  "yelamanchalli",
  "tasgaon",
  "nimni",
  "malout",
  "mukerian",
  "vadasserikkara",
  "sonarichapari",
  "anjani",
  "jalalabad",
  "jandiala",
  "alwarthirunagari",
  "almatti",
  "balachour",
  "bailhongal",
  "beas",
  "solan",
  "posana",
  "godachandji",
  "tezpur",
  "bakrard",
  "kurgaon",
  "sindkheda",
  "shahgarh",
  "guindy",
  "delhisightseeing",
  "guledgudda",
  "banaras",
  "gokak",
  "pennada",
  "ghilamara",
  "potla",
  "majhog",
  "vembakkotai",
  "pallapatti",
  "thalavaipuram",
  "athirampattinam",
  "javalga",
  "kotamurukai",
  "tallada",
  "kondadischool",
  "rajula",
  "sindhkhedraja",
  "yemmiganur",
  "sulthanbathery",
  "nadiad",
  "mollem",
  "parali",
  "kuthuparamba",
  "jaitpur",
  "shahjahanpur",
  "motebennur",
  "elayankudi",
  "dehradun",
  "mannakalli",
  "nainital",
  "bavla",
  "mussoorie",
  "jasnagar",
  "jivana",
  "hanumanjunction",
  "mulamthurthy",
  "kesavaram",
  "vadapalani",
  "narakoduru",
  "kankipadu",
  "mavinakatte",
  "shiggaon",
  "paripally",
  "shahada",
  "busroor",
  "hariharapura",
  "kazhakkuttam",
  "bcroad",
  "kandavelli",
  "paramathivellore",
  "kasaragod",
  "nileshwar",
  "katta",
  "kasal",
  "lanja",
  "ayodhya",
  "basti",
  "malvan",
  "chowk",
  "mukkam",
  "kerewadi",
  "perumbavoor",
  "goniana",
  "kampli",
  "upunda",
  "kalladka",
  "thriprayar",
  "chapoli",
  "galiveedu",
  "paravoor",
  "huvinahadagali",
  "lakhnadon",
  "allepy",
  "kekri",
  "gadag",
  "baripada",
  "muthupettai",
  "koradacheri",
  "pothakudi",
  "udumalaipet",
  "thiruchendur",
  "chakkarakal",
  "nagarjunsagar",
  "betamcherla",
  "morvan",
  "chagalamarri",
  "chilamkur",
  "jharda",
  "devalkunda",
  "kumarapalayam",
  "namli",
  "dalauda",
  "tal",
  "diken",
  "bhager",
  "sanaliya",
  "bodi",
  "shivkhori",
  "ravulapalem",
  "crossland",
  "amod",
  "kim",
  "rajpura",
  "khatima",
  "kenchanuru",
  "peddapuram",
  "jafarabad",
  "wani",
  "savlaj",
  "tulsipur",
  "puranpur",
  "mohammadi",
  "lakhimpur",
  "mantralayam",
  "varmanagar",
  "ravapar",
  "harur",
  "kaziranga",
  "thallada",
  "lathi",
  "ichhapur",
  "thanadhar",
  "indapur",
  "faridabad",
  "devgarh",
  "farrukhabad",
  "kalghatagi",
  "kikkeri",
  "similiguda",
  "thopputhurai",
  "razole",
  "virpur",
  "malakonda",
  "mulleria",
  "jiribam",
  "galimukha",
  "mangrol",
  "giddarwaha",
  "fulertal",
  "nagthane",
  "mooliyar",
  "morampudi",
  "pimpalner",
  "kayalpattinam",
  "poovadkka",
  "kartarpur",
  "vadakara",
  "devas",
  "selapadu",
  "indore",
  "akola",
  "ramachandrapuram",
  "kakinada",
  "narsapuram",
  "kalluru",
  "tarla",
  "radhanagari",
  "chiluvuru",
  "palghar",
  "pahalgam",
  "silamalai",
  "nakoda",
  "kanodar",
  "chhapi",
  "mathura",
  "shivpuri",
  "pudukadai",
  "kailadevi",
  "athwa",
  "thirukadaiyur",
  "thadod",
  "dhangaon",
  "gangaramchouraha",
  "baneriya",
  "katunda",
  "kadwasa",
  "tiptur",
  "jhajjar",
  "rewari",
  "ramodadi",
  "yerraguntla",
  "tanakal",
  "babra",
  "ramdhari",
  "inkollu",
  "kurumbur",
  "sattur",
  "uppunda",
  "surandai",
  "veerapanenipally",
  "cheyyeru",
  "thondi",
  "nunna",
  "theur",
  "nanikhakhar",
  "gooty",
  "singoli",
  "alleppy",
  "shahuwadi",
  "reliance",
  "vajreshwari",
  "assamuniversity",
  "lakkavaram",
  "borana",
  "kozhhikode",
  "bhanpura",
  "dousa",
  "ranavav",
  "bhatewar",
  "bilkha",
  "sikandra",
  "mahuvarj",
  "shiroda",
  "prasadampadu",
  "ramavarappadu",
  "murathangadi",
  "pallikonda",
  "c.b.dbelapur",
  "gurmatkal",
  "jangalberi",
  "jaloripass",
  "kankumbi",
  "jahoo",
  "isbtshimla",
  "jajeli",
  "jaidevi",
  "garli",
  "cinnamanur",
  "hatkoti",
  "ghumarwin",
  "pithalpur",
  "shankarnagar",
  "shaktigarh",
  "kayathar",
  "kalugumalai",
  "shyamgadh",
  "adimali",
  "madhurawada",
  "kubragotu",
  "bherya",
  "betageri",
  "basavanabagewadi",
  "bankapur",
  "chadchan",
  "hebbur",
  "bittangala",
  "birurcross",
  "sindagi",
  "humpi",
  "bhadravati",
  "keralapotta",
  "sangola",
  "tarikere",
  "sithangolli",
  "mothadaka",
  "pallu",
  "kujad",
  "pathanamthitta",
  "nohar",
  "kavalibypass",
  "gogamedi",
  "vellore",
  "ayakkaranpulam",
  "nagari",
  "bengaluru",
  "anagola",
  "mimisal",
  "jaitran",
  "jagadapatnam",
  "sarkadiya",
  "quilon",
  "vemulapadu",
  "rathali",
  "anandapura",
  "bokakhat",
  "simla",
  "jaggaiahpet",
  "lingasur",
  "mydukuru",
  "talcher",
  "mumbaiairport",
  "pernampattu",
  "katghora",
  "vatar",
  "shivamogga",
  "harda",
  "chitradurga",
  "byadagi",
  "bilagi",
  "kulai",
  "bhudagumpa",
  "bhalki",
  "basavakalyan",
  "kamalapur",
  "shoghi",
  "saravanampatti",
  "vartej",
  "motasurka",
  "katra",
  "velayuthampalayam",
  "hindupur",
  "kamareddy",
  "jewargi",
  "coorg",
  "kamatagi",
  "hiriyur",
  "kalolbypass",
  "sendhwa",
  "kangra",
  "vontimitta",
  "nandura",
  "nirmal",
  "mumindivaaram",
  "mahabalipuram",
  "sharontha",
  "kalghatgi",
  "pandarkura",
  "rewa",
  "tambaram",
  "ootyss",
  "koilkuntla",
  "kulasekaram",
  "paramakudi",
  "mandar",
  "shirgaon",
  "nirmali",
  "raxaul",
  "mau",
  "gollapudi",
  "laukaha",
  "madhubani",
  "pandhro",
  "pattanamthitta",
  "battalanka",
  "sivagangai",
  "pawthi",
  "divancheruvurjy",
  "alibaugh",
  "chandawal",
  "sawarde",
  "subhashnagar",
  "pattadakal",
  "herur",
  "amaravathi",
  "jaipurdarshan",
  "dhoki",
  "thiruvallur",
  "dangri",
  "darlaghat",
  "chamba",
  "nidamolu",
  "chanaur",
  "zalki",
  "machilipatnam",
  "muniyal",
  "saibarakatte",
  "dhameta",
  "katapadi",
  "pachora",
  "jakkaram",
  "patnadhal",
  "mundra",
  "kadamanchali",
  "perinthalmanna",
  "malappuram",
  "anand",
  "valsad",
  "gandhinagar",
  "sihor",
  "haathkhamba",
  "bhadrajun",
  "patnavelli",
  "vada",
  "kamothe",
  "kouvrnlr",
  "athani",
  "baindoor",
  "shashricircle",
  "murari",
  "shashidara",
  "balasore",
  "palanpur",
  "disa",
  "dhanera",
  "ch-peta",
  "vinjamoor",
  "byavar",
  "kalol",
  "rimuli",
  "basroor",
  "giddalur",
  "jurudi",
  "bamabari",
  "dhorimanna",
  "dubna",
  "tada",
  "chelari",
  "mudinepalli",
  "kakkad",
  "amravati",
  "korukolu",
  "neikkarapatti",
  "purnea",
  "mokokchung",
  "hamirpur",
  "undri",
  "miryalagudabypass",
  "bharauli",
  "birbhanpur",
  "atraulia",
  "padra",
  "konch",
  "gariadhar",
  "dhandhuka",
  "lumshnong",
  "barpetaroad",
  "bongaigaon",
  "kolbandre",
  "amroha",
  "bah",
  "deoband",
  "kasganj",
  "meenagadi",
  "bagodra",
  "karaya",
  "pulivendula",
  "choutuppal",
  "bhind",
  "sankarankoil",
  "perundurai",
  "malavali",
  "koraput",
  "tenali",
  "nagpur",
  "jeypore",
  "keralapura",
  "panchkula",
  "kadiyam",
  "varshi",
  "sanderaw",
  "goraya",
  "dehra",
  "kothputli",
  "bahroad",
  "khanna",
  "badwah",
  "revendrapadu",
  "jawalaji",
  "chintpurni",
  "mulanur",
  "karadka",
  "manasa",
  "aurangabad",
  "luharu",
  "peravoor",
  "satana",
  "amrutvel",
  "alakode",
  "cherupuzha",
  "nalgondabypass",
  "cunoor",
  "venoor",
  "ner",
  "thirunallar",
  "narsobawadi",
  "jalna/nasik",
  "warud",
  "dahanu",
  "chingavanam",
  "vajjapur",
  "perecherla",
  "gadhinglaj",
  "rasingapuram",
  "tuljapur",
  "yeola",
  "pandalkudi",
  "nilakkottai",
  "partapgarh",
  "chinttpurni",
  "ranjangaon",
  "malpura",
  "nevasaphata",
  "palarivattam",
  "ponnur",
  "nenmara",
  "ugarkhurd",
  "shiruranantpal",
  "kotralambypass",
  "bhanjanagar",
  "koduvally",
  "kunnamangalam",
  "diyodar",
  "shikrapur",
  "bhabhar",
  "adur",
  "palvancha",
  "yediyur",
  "kothuru",
  "rippinpet",
  "soro",
  "pennagaram",
  "hogenakkal",
  "agiripalli",
  "mathania",
  "jakadevi",
  "osiyan",
  "alibagh",
  "yelladakere",
  "golaghat",
  "bhigwan",
  "murtizapur",
  "chafe",
  "thrissurbypass",
  "tharad",
  "yelandur",
  "mountabu",
  "yelbarga",
  "madangeri",
  "haldipur",
  "mirjan",
  "munganda",
  "daman",
  "surat",
  "dommeru",
  "kolar",
  "pileru",
  "nakrekal",
  "murje",
  "satturbypass",
  "kharupetia",
  "appapuram",
  "pavagada",
  "gander",
  "ganoh",
  "galian",
  "gagal",
  "gagret",
  "dhoh",
  "dochi",
  "dhangota",
  "dheera",
  "arcot",
  "ayanur",
  "bhagamandala",
  "bagepalli",
  "anmod",
  "antharkatte",
  "arakalagud",
  "arakera",
  "vallabhipur",
  "silvassa",
  "akolali-jaliya",
  "hamapur",
  "bagewadi",
  "bhandigadi",
  "ghodidhaal",
  "andalurgate",
  "vellorebypass",
  "atkot",
  "fatehnagar",
  "narasannapeta",
  "amargadh",
  "tarntaran",
  "nathdwara",
  "arani",
  "pangidigudem",
  "yerraguntapalli",
  "kumbale",
  "thanjavur",
  "mahesana",
  "gorantla",
  "ladnun",
  "rajahamundry",
  "chandole",
  "thunag",
  "udankudi",
  "jalahalli",
  "vedangi",
  "aruppukottai",
  "savaliya",
  "manamelkudi",
  "hariharganj",
  "amba",
  "navsari",
  "simran",
  "wakishivane",
  "thadach",
  "karinja",
  "singarayakonda",
  "ottapidaram",
  "cheyaru",
  "azamgarh",
  "panchvamal",
  "markapuram",
  "shirdun",
  "malangaon",
  "shrinathji",
  "mugrujunction",
  "nasikmumbainaka",
  "bhagalpur",
  "chinnasalem",
  "veeravanallur",
  "sivagiri",
  "manikonda",
  "pudur",
  "vadisaleru",
  "ratnagiri",
  "thampanoor",
  "ranigunj",
  "velupuru",
  "nimkhera",
  "dhokadava",
  "raiganj",
  "majalgaon",
  "santacruz",
  "kandivali",
  "darwha",
  "haliyal",
  "veerasigamani",
  "tarapith",
  "ochira",
  "umedabad",
  "wai",
  "jhulwaniya",
  "pethnaka",
  "vaijapur",
  "panvel",
  "kombai",
  "aravakurichi-bypass",
  "musiri",
  "kulithalai",
  "thirupalaikudi",
  "umbarkhed",
  "blackbridge",
  "bandarulanka",
  "appikatla",
  "mauli",
  "muktheswaram",
  "kadapa",
  "jonnada",
  "dowlaiswaram",
  "p.gannavaram",
  "katihar",
  "shirali",
  "chinnaameeram",
  "mandvala",
  "siwana",
  "anegudde",
  "eastvipparru",
  "jaysingpur",
  "devipattinam",
  "amanganj",
  "dhalavaipuram",
  "bandakpur",
  "badagaon",
  "kumhari",
  "garhakota",
  "simariya",
  "raipuramuhsam",
  "srivilliputhur",
  "k.knagar",
  "delhi",
  "agrasightseen",
  "vataman",
  "dadoli",
  "navaghadh",
  "rayya",
  "ganpatipule",
  "kondotty",
  "srirangapattana",
  "mysoresiteseeing",
  "borsad",
  "vasad",
  "valliyur",
  "anjangaon",
  "adilabad",
  "narsipatnam",
  "kondayeporu",
  "gandepalli",
  "dhamnod",
  "bhujabalapatnam",
  "palakollu",
  "gudlur",
  "ayyampet",
  "athikadai",
  "kalla",
  "uchila",
  "padyarabettu",
  "bilgram",
  "mandavalli",
  "kothamangalam",
  "thoppumpady",
  "mattancheri",
  "bhadarsa",
  "kattappana",
  "shahganj",
  "kannauj",
  "lamjana",
  "paradeep",
  "aurai",
  "addaroddu",
  "govardhan",
  "gundmiambagilu",
  "dhakuakhana",
  "jengraimukh",
  "tungabhadradam",
  "gokavaram",
  "addaroad",
  "mangvana",
  "vairag",
  "narayangarh",
  "wadonapatti",
  "hemmady",
  "mangaldai",
  "manekvada",
  "patur",
  "tumkurbypass",
  "paiga",
  "gangavathi",
  "bantwal",
  "moodubelle",
  "jedcharla",
  "banshkandi",
  "penumandra",
  "dudhtalai",
  "channarayapatana",
  "ambala",
  "pailapool",
  "trichur",
  "namsai",
  "gulbarga",
  "aland",
  "vashi",
  "naharlagun",
  "thummapudi",
  "thiruturaipoondi",
  "maksi",
  "peravoorni",
  "tuticorin",
  "khonsa",
  "mahabaleshwar",
  "palani",
  "pargi",
  "greaternoida",
  "dausa",
  "borav",
  "pachaganisightseeing",
  "spotra",
  "navunda",
  "kosamba",
  "shahpura",
  "percherla",
  "jalgaon",
  "bhusaval",
  "udgir",
  "chotila",
  "ahmedpur",
  "chemmanur",
  "dhrol",
  "moran",
  "vedaranayam",
  "hindauncity",
  "muradabad",
  "phalodi",
  "daramali",
  "karanjalad",
  "rajanagaram",
  "jaggampeta",
  "umar",
  "mangalwar",
  "gudivada",
  "mahurgad",
  "dayapar",
  "covai",
  "bhimavaram",
  "badoli",
  "datala",
  "nangal",
  "badlapur",
  "gharsana",
  "upplla",
  "jira",
  "jejuri",
  "aundhanagnath",
  "penugonda",
  "shohrabgate",
  "unnao",
  "okkur",
  "southgoa",
  "newmumbai",
  "chikodi",
  "marteru",
  "davuluru",
  "chavand",
  "kadanga",
  "valapady",
  "thuvakudibhel",
  "netramli",
  "mayasandra",
  "nagullanka",
  "kollankodu",
  "anta",
  "unchahar",
  "manjeshwar",
  "rameshwaram",
  "munirabad",
  "manwath",
  "sonkhed",
  "matheran",
  "kokandarshan-2",
  "sidsar",
  "lokapur",
  "rishikesh",
  "jamkhandi",
  "humcha",
  "kirkichowki",
  "pratapur",
  "miani",
  "piplyamandi",
  "koratty",
  "pachegaon",
  "bhadrod",
  "basarlapudi",
  "nagaj",
  "palai",
  "kamuthi",
  "kharghar",
  "sholapur",
  "matanomadh",
  "faizabad",
  "bramavar",
  "mulki",
  "ramnagara",
  "chennapatna",
  "jamb",
  "halli",
  "kallikudi",
  "thimmarajupalem",
  "vellumbarum",
  "khundian",
  "kharapathar",
  "jammulapalem",
  "kaithal",
  "keylong",
  "karcham",
  "kakumanu",
  "khaneti",
  "khanag",
  "khamadi",
  "darur",
  "dambal",
  "doddaballapur",
  "dhimbham",
  "gandasi",
  "eroor",
  "belgaumbypass",
  "gingee",
  "mohali",
  "rajpara",
  "sindhudurg",
  "talsure",
  "madapattu",
  "khagna",
  "najapur",
  "hadala",
  "chuda",
  "tori",
  "shirkhal",
  "hunsur",
  "bylakuppe",
  "shelubazar",
  "ratangadh",
  "kandlur",
  "dhevdi",
  "malleshwara",
  "kavalkinaru",
  "murthal",
  "pabal",
  "taharabad",
  "konnur",
  "hingodia",
  "amrapur",
  "ledo",
  "dholasa",
  "rambhadrapuram",
  "ellora",
  "kollurucross",
  "surnagar",
  "pedapudi",
  "gudavalli",
  "ballia",
  "gudlavalleru",
  "sakol",
  "naroda",
  "shivtharghal",
  "wardha",
  "srikalahasthi",
  "pune",
  "guntur",
  "bankura",
  "ongole",
  "vijayawada",
  "pohri",
  "bellary",
  "ukkirankotai",
  "kariyapatti",
  "mukkamala",
  "putalapattu",
  "hathigadh",
  "chettiyapathu",
  "mandawar",
  "kuwaria",
  "kulasekharapatnam",
  "shankarpura",
  "virudhnagarbypass",
  "loaj",
  "limbadi",
  "khud",
  "kharvada",
  "jasvantghadh",
  "kalinda",
  "kadganchi",
  "kandola",
  "kameragadh",
  "reniguntabypass",
  "thapettai",
  "peleru",
  "c.b.d",
  "bhandara",
  "gondia",
  "bediya",
  "bijoliya",
  "chintalapudi",
  "thirupoondi",
  "badampudi",
  "sannanallur",
  "ankali",
  "parappadi",
  "karla",
  "lakshettipet",
  "pendurthi",
  "chinnaganjam",
  "mumbaisiteseeing",
  "gopavaram",
  "ipurupalem",
  "darsi",
  "sirvar",
  "pazhayangadi",
  "vaishali",
  "tangi",
  "thunni",
  "alwandi",
  "moodabidri",
  "aahor",
  "chhatral",
  "dechu",
  "ulavapadu",
  "biliya",
  "karikal",
  "authoornorth",
  "semmadaipatty",
  "authoorsouth",
  "ponnai",
  "chinnamandem",
  "gurramkonda",
  "lalganjajhara",
  "aurangabaddarshan",
  "kushinagar",
  "thasra",
  "mundargi",
  "ujire",
  "motivavdi",
  "pathiripala",
  "akalkot",
  "sidhpur",
  "temburni",
  "mohol",
  "halebeedu",
  "mahalingapur",
  "vadachery",
  "mulbagal",
  "mandarakuppam",
  "srungavruksham",
  "chinnadharapuram",
  "kuppam",
  "kanjirappally",
  "bewar",
  "erumely",
  "pandalam",
  "angamaly",
  "guravayyepalem",
  "chengannur",
  "musafirkhana",
  "sidhauli",
  "badshahpur",
  "chandikhol",
  "bantakal",
  "nehtaur",
  "kaithi",
  "kovilpattibypass",
  "niyamatganj",
  "jamniya",
  "chilla",
  "padao",
  "ghazipur",
  "amethi",
  "pisavan",
  "shikaripura",
  "thekatte",
  "mananthavaadi",
  "bareilly",
  "mannuthy",
  "moradabad",
  "chalisgaon",
  "navimumbai",
  "nellimarla",
  "gati",
  "nagara",
  "nagaon",
  "punnapra",
  "lalapur",
  "lucknow",
  "himatnagar",
  "yavatmal",
  "khakhar",
  "kurduvadi",
  "sakegaon",
  "vegendlaxroad",
  "chakur",
  "bijapurbypass",
  "gulbargabypass",
  "longding",
  "pungal",
  "jalna",
  "amalner",
  "chopda",
  "kukkesubramanya",
  "ulundurpet",
  "perambalur",
  "junagarh",
  "parane",
  "duvvuru",
  "nivliphata",
  "sudhagad",
  "vijayanagar",
  "derisanamcope",
  "morshi",
  "aihole",
  "northlakhimpur",
  "agumbe",
  "nidubrolu",
  "vetlapalem",
  "thiruvetriyur",
  "ajjampura",
  "bhuntar",
  "pathapatnam",
  "jintur",
  "melur",
  "kalwan",
  "ambajogai",
  "ambajipeta",
  "kothapeta",
  "dindori",
  "kanuru",
  "dombiwali",
  "karamsad",
  "dindigulbypass",
  "kanigiri",
  "bhavani",
  "nagore",
  "jaigad",
  "raigarh",
  "paithan",
  "seethanagaram",
  "kanjikode",
  "hansi",
  "pattambi",
  "valayapatti",
  "malpe",
  "nadbai",
  "edneermutt",
  "bekal",
  "uduma",
  "bhiwadi",
  "meleparambu",
  "kapavaramroad",
  "sawaimadhopur",
  "rayagada",
  "kakani",
  "seydunganallur",
  "damanjodi",
  "jamjodhpur",
  "tinsukia",
  "tarvada",
  "puliyal",
  "jhalrapatan",
  "narippaiyur",
  "yalamanchilli",
  "tellicherry",
  "talluru",
  "sampekatte",
  "pasarlapudi",
  "samarlakota",
  "murtajapur",
  "sangameshwar",
  "aaspur",
  "banswada",
  "rsmangalam",
  "ratangarh",
  "shiwnari",
  "duddukuru",
  "masura",
  "ladkaranja",
  "poduru",
  "thirukkurungudi",
  "purandhar",
  "rathnagiri",
  "alwarkurichi",
  "sinhagad",
  "vedasandur",
  "vyara",
  "kole",
  "khetiya",
  "tijara",
  "kotagiri",
  "gopnath",
  "sardarshahar",
  "vembar",
  "karwarcross",
  "uppiliapuram",
  "girgadhada",
  "kuppampatti",
  "damnagar",
  "karumathampatti",
  "aizawl",
  "mugalkhod",
  "bina",
  "dimapur",
  "jonai",
  "amguri",
  "kbcross",
  "allagadda",
  "ramkrishnanagar",
  "simenchapori",
  "nagamangala",
  "dwarapudi",
  "khagaria",
  "kalangar",
  "kaleamb",
  "kaloha",
  "kandaghat",
  "janjheli",
  "jarol",
  "ajitwal",
  "chatrapatti",
  "yawal",
  "jorhat",
  "argodi",
  "periyakulam",
  "nattarameswaram",
  "tohana",
  "lingsugur",
  "sivakodu",
  "retur",
  "sanganer",
  "kodakara",
  "thirunagar",
  "sonepur",
  "thiruvengadam",
  "bambavade",
  "charmadi",
  "chamundipuram",
  "chandgad",
  "chikkanayakanahalli",
  "chincholi",
  "chengam",
  "chikkbyaladkere",
  "mehandipurbalaji",
  "chintamani",
  "chittapur",
  "khajuraho",
  "teok",
  "tejpura",
  "miraj",
  "patiala",
  "chabua",
  "alampur",
  "anni",
  "addu",
  "akpa",
  "anu",
  "arki",
  "vakavali",
  "t.narsapuram",
  "kalam",
  "tnplvelayuthampalayam",
  "sangli",
  "neyyattinkara",
  "melapalayam",
  "khajuwala",
  "kalwa",
  "assolna",
  "chandwad",
  "jambusar",
  "raniganj",
  "kokandarshan",
  "sheopurkala",
  "talerenaka",
  "melaseval",
  "sadri",
  "pedavadlapudi",
  "thrissur",
  "thrisur",
  "vijaydurg",
  "nandaluru",
  "maharajganj",
  "ottapalam",
  "siddhamtam",
  "nathpa",
  "netra",
  "ananthapur",
  "bangalore",
  "chennai",
  "dhawas",
  "kurnool",
  "farakka",
  "kishangunj",
  "moolakaraippatti",
  "mysore",
  "thekkady",
  "tirupurbypass",
  "salembypass",
  "satara",
  "kapasan",
  "needamangalam",
  "vaideeswarankoil",
  "laxmangarh",
  "sriperumbudur",
  "purulia",
  "oliya",
  "khadiya",
  "shil",
  "fulsar",
  "chilakaluripet",
  "varahi",
  "boisar",
  "banswara",
  "songhadh",
  "pusapaduxroad",
  "mohanur",
  "ranibennur",
  "panwel",
  "satarabypass",
  "radhanpur",
  "kolaras",
  "ruthiyai",
  "areraj",
  "tibi",
  "phulparas",
  "poothotta",
  "abohar",
  "malot",
  "koilyandy",
  "baruch",
  "thindal",
  "sitto",
  "khamgoan",
  "kolhapurbypass",
  "vaitla",
  "megnanapuram",
  "shravanabelagola",
  "s.kondaby-pass",
  "nalagarh",
  "peravali",
  "akkialur",
  "khandela",
  "hdkote",
  "darsadi",
  "thachanallur",
  "nambuthalai",
  "thrasi",
  "tanguturu",
  "udupikaravali",
  "trapaj",
  "baragarh",
  "sambalpur",
  "burla",
  "kushalnagar",
  "dharmapuribypass",
  "pannankulam",
  "thiruchitrambalam",
  "undi",
  "sathupalli",
  "sanwaliajimandir",
  "bangla",
  "perrundurai",
  "chandolu",
  "shivakodu",
  "niddodi",
  "melmaruvathur",
  "jagganathagiri",
  "mudigubba",
  "anugul",
  "angul",
  "latur",
  "didarganj",
  "attra",
  "bahavanpur",
  "mandakhas",
  "mehnajpur",
  "rourkela",
  "vandse",
  "sambhal",
  "haidargarh",
  "sundarapuram",
  "pilani",
  "shihor",
  "byndoor",
  "mandvi",
  "irinjalakuda",
  "perumanallur",
  "silchar",
  "madhepura",
  "devarkulam",
  "vannikonendal",
  "vanaramutti",
  "panavadalichatram",
  "cochin",
  "khandala",
  "bijadi",
  "jalandhar",
  "bangaloresightseeing",
  "kottarachowki",
  "adsul",
  "nimba",
  "parbatsar",
  "sanjan",
  "oddanchathiram",
  "vathar",
  "ferozepur",
  "avinashi",
  "daspa",
  "kishangarh",
  "krishnagiri",
  "mayiladuthurai",
  "tindivanam",
  "shankaranarayana",
  "bombay",
  "umarga",
  "thakkalai",
  "tumkur",
  "vadapalli",
  "ponkunnam",
  "afzalpur",
  "nongpoh",
  "adul",
  "khemana",
  "mokhanda",
  "thattarmadam",
  "sardharpur",
  "imagica",
  "kalyandurg",
  "nainpur",
  "jevargi",
  "malanjkhand",
  "harpanahalli",
  "melkar",
  "ganjimutt",
  "byrnihat",
  "dharuheda",
  "baikampady",
  "haldwani",
  "sundernagar",
  "kerur",
  "kulgericross",
  "daulatabad",
  "mangaon",
  "pharadapur",
  "rania",
  "ellenabad",
  "karje",
  "krushikendra",
  "nilavaracross",
  "dabawali",
  "fathiabad",
  "tara",
  "kawardha",
  "bemetara",
  "bhandardara",
  "karnala",
  "bandhiyodu",
  "bichhiya",
  "anjaniya",
  "chilpi",
  "bodla",
  "mangeli",
  "mandla",
  "thirthahalli",
  "deoli",
  "thalachanvilai",
  "saharsa",
  "kurichedu",
  "pithampurbypass",
  "khordha",
  "walayar",
  "thiruvadanaikaikaati",
  "manchili",
  "sangareddy",
  "kohima",
  "kaveripattinam",
  "thallur",
  "metwada",
  "sabarimala",
  "challakere",
  "malliakarai",
  "samkhayali",
  "phillaur",
  "noormahal",
  "kuchipudi",
  "sillodbypass",
  "ventrapragada",
  "raapaka",
  "mukandpur",
  "anakapallebypass",
  "muchipara",
  "villupuram",
  "halol",
  "vijapadi",
  "chiloda",
  "mallipattinam",
  "chirala",
  "gannavaram",
  "bhilai",
  "durg",
  "kavathemahankal",
  "molakalmuru",
  "linganamakki",
  "fazilka",
  "hungund",
  "amingad",
  "banot",
  "banjar",
  "barthata",
  "barmana",
  "bharanu",
  "belthur",
  "bharmour",
  "bhararighat",
  "bhawarna",
  "bharwain",
  "atkuru",
  "nujadi",
  "kasibugga",
  "kaduthurity",
  "gajuwaka",
  "kudvali",
  "orathanadu",
  "karapa",
  "punalur",
  "harogolige",
  "begamganj",
  "gandi",
  "gairatganj",
  "kesariyaji",
  "piduguralla",
  "vellaturu",
  "shirala",
  "muvattupuzha",
  "gundya",
  "palayam",
  "gundlupet",
  "salangpur",
  "rupai",
  "kozhencherry",
  "chalakudi",
  "kumbanad",
  "gadhshisha",
  "chinnamanur",
  "munnar",
  "thirumurugal",
  "salaigramam",
  "naukha",
  "shiraguppi",
  "vazhikkadavu",
  "dhari",
  "karur-by-pass",
  "kottarakara",
  "kavali",
  "rahatgarh",
  "parwanoo",
  "paprola",
  "moovattupuzha",
  "changanacherry",
  "paddar",
  "oddi",
  "panjot",
  "pandoh",
  "nirath",
  "nihari",
  "nohradhar",
  "nogli",
  "borda",
  "thuvakudi",
  "janjira",
  "muzffarnagar",
  "t.kallupatti",
  "vitta",
  "bathinda",
  "dabwali",
  "moga",
  "gaziyabad",
  "dalhousie",
  "paontasahib",
  "kodigenahalli",
  "koshithal",
  "khangaon",
  "lukwasa",
  "malhargarh",
  "newai",
  "porbandar",
  "rattalli",
  "ahore",
  "gandhidham",
  "palitana",
  "thisayanvilai",
  "nesdi",
  "babbaryakottya",
  "nandurbar",
  "bannadka",
  "sundargarh",
  "shargad",
  "yamunanagar",
  "oddanchataram",
  "nithiravilai",
  "velangi",
  "samadhiyala",
  "garhjamula",
  "rayan",
  "kamavarapukota",
  "thadekelapudi",
  "devaria",
  "nimach",
  "nigari",
  "miryalaguda",
  "khakhbai",
  "patanvav",
  "paneli",
  "puliyampatti",
  "songir",
  "shorapur",
  "motikunkavav",
  "thiruvadanai",
  "waiphata",
  "lamjan",
  "loni",
  "kukma",
  "hanumaangarhjunction",
  "panchkipulli",
  "pimpalgaon",
  "hanumaangarh",
  "annambhotlavaripalem",
  "bhusawal",
  "aurad",
  "muddebihal",
  "vanthli",
  "rait",
  "tharoch",
  "sanwad",
  "vilasa",
  "komaragiripatnam",
  "siripalle",
  "rajgarh",
  "tirupattur",
  "thatipadu",
  "yedullapalli",
  "pala",
  "talwana",
  "belvai",
  "badiyadka",
  "kumbla",
  "mangalorebypass",
  "kunigal",
  "medta",
  "rukhran",
  "guttal",
  "keraladivinecentre",
  "jaam",
  "gutti",
  "somwarpet",
  "vundhurru",
  "shivganj",
  "thodupuzha",
  "khatipudi",
  "bolangir",
  "kolluru",
  "kudithini",
  "jetaran",
  "saligrama",
  "shriramnagar",
  "kokkanti",
  "dhemaji",
  "mukhiguda",
  "chamarajanagar",
  "bhawanipatna",
  "kesinga",
  "jamraval",
  "bannadi",
  "mudgal",
  "perungalathur",
  "shrihargovindpur",
  "jamkalyanpur",
  "tavaragere",
  "dahiser",
  "kopergaon",
  "aduthurai",
  "kamrej",
  "damalcheruvu",
  "m.cheruvu",
  "baldiya",
  "maski",
  "vamanjoor",
  "pampady",
  "kutuparamba",
  "ambejogai",
  "kowdhalli",
  "muddanuru",
  "mandarthi",
  "surajpar",
  "dharmanagar",
  "uthamapalayam",
  "mandapalli",
  "dhakhava",
  "reddiarpatti",
  "singrauli",
  "mohannagar",
  "chandausi",
  "hathras",
  "baidan",
  "khatauli",
  "jagdishpur",
  "padrauna",
  "kadayam",
  "bijnor",
  "najibabad",
  "gonda",
  "siddharthnagar",
  "gola",
  "hardoi",
  "shivajinagar",
  "phansu",
  "mandangad",
  "dapoli",
  "karoi",
  "raila",
  "savarda",
  "rasipuram",
  "thuraiyur",
  "alappuzha",
  "lonavala",
  "neriamangalam",
  "trissur",
  "thathangaiarpet",
  "narsaraopet",
  "khicha",
  "vasai",
  "aanjar",
  "adipur",
  "wadrafnagar",
  "nanudi",
  "khambha",
  "madhupur",
  "itanagar",
  "badami",
  "sorab",
  "devarhippargi",
  "pathedi",
  "naragund",
  "sira",
  "vennandur",
  "debari",
  "nuziveedu",
  "shornur",
  "pratappur",
  "achampet",
  "aavanamkaikaati",
  "adichunchanagiri",
  "kumbhari",
  "kumarakom",
  "bhandishegaon",
  "adivaram",
  "kadlas",
  "kosari",
  "udanwadi",
  "arewadi",
  "raver",
  "shirur",
  "lekshmankudi",
  "guna",
  "palayakayal",
  "vallam",
  "hanumangarh",
  "banaganapalli",
  "agra",
  "dungar",
  "nivli",
  "bhuleshwar",
  "potta",
  "gaganbavada",
  "kurukkuchalai",
  "pokaran",
  "datrana",
  "chokisorath",
  "lonere",
  "harihareshwar",
  "satna",
  "kotputli",
  "degana",
  "mahua",
  "butibori",
  "usilampatti",
  "jambhuldhaba",
  "pallathur",
  "vazhakkulam",
  "rajkot",
  "jindalsteel",
  "adanipower",
  "elora",
  "a.s.peta",
  "kaligiri",
  "sarangpur",
  "rangampeta",
  "krec",
  "thirumangalam",
  "ulikkal",
  "hunsgi",
  "payyavoor",
  "jhansi",
  "port blair",
  "bandra"
]